<?xml version="1.0" encoding="UTF-8"?>
<svg xmlns="http://www.w3.org/2000/svg" xmlns:xlink="http://www.w3.org/1999/xlink" width="1800pt" height="1080pt" viewBox="0 0 1800 1080" version="1.1">
<defs>
<g>
<symbol overflow="visible" id="glyph0-0">
<path style="stroke:none;" d="M 0.5 1.765625 L 0.5 -7.046875 L 5.5 -7.046875 L 5.5 1.765625 Z M 1.0625 1.21875 L 4.9375 1.21875 L 4.9375 -6.484375 L 1.0625 -6.484375 Z M 1.0625 1.21875 "/>
</symbol>
<symbol overflow="visible" id="glyph0-1">
<path style="stroke:none;" d="M 1.234375 -0.828125 L 2.859375 -0.828125 L 2.859375 -6.390625 L 1.09375 -6.046875 L 1.09375 -6.9375 L 2.84375 -7.296875 L 3.828125 -7.296875 L 3.828125 -0.828125 L 5.4375 -0.828125 L 5.4375 0 L 1.234375 0 Z M 1.234375 -0.828125 "/>
</symbol>
<symbol overflow="visible" id="glyph0-2">
<path style="stroke:none;" d="M 3.171875 -6.640625 C 2.671875 -6.640625 2.289062 -6.390625 2.03125 -5.890625 C 1.78125 -5.390625 1.65625 -4.640625 1.65625 -3.640625 C 1.65625 -2.640625 1.78125 -1.890625 2.03125 -1.390625 C 2.289062 -0.890625 2.671875 -0.640625 3.171875 -0.640625 C 3.691406 -0.640625 4.078125 -0.890625 4.328125 -1.390625 C 4.585938 -1.890625 4.71875 -2.640625 4.71875 -3.640625 C 4.71875 -4.640625 4.585938 -5.390625 4.328125 -5.890625 C 4.078125 -6.390625 3.691406 -6.640625 3.171875 -6.640625 Z M 3.171875 -7.421875 C 3.992188 -7.421875 4.617188 -7.097656 5.046875 -6.453125 C 5.484375 -5.804688 5.703125 -4.867188 5.703125 -3.640625 C 5.703125 -2.410156 5.484375 -1.472656 5.046875 -0.828125 C 4.617188 -0.179688 3.992188 0.140625 3.171875 0.140625 C 2.359375 0.140625 1.734375 -0.179688 1.296875 -0.828125 C 0.867188 -1.472656 0.65625 -2.410156 0.65625 -3.640625 C 0.65625 -4.867188 0.867188 -5.804688 1.296875 -6.453125 C 1.734375 -7.097656 2.359375 -7.421875 3.171875 -7.421875 Z M 3.171875 -7.421875 "/>
</symbol>
<symbol overflow="visible" id="glyph0-3">
<path style="stroke:none;" d="M 1.96875 -3.484375 L 1.96875 -0.8125 L 3.546875 -0.8125 C 4.078125 -0.8125 4.46875 -0.921875 4.71875 -1.140625 C 4.976562 -1.359375 5.109375 -1.695312 5.109375 -2.15625 C 5.109375 -2.601562 4.976562 -2.9375 4.71875 -3.15625 C 4.46875 -3.375 4.078125 -3.484375 3.546875 -3.484375 Z M 1.96875 -6.484375 L 1.96875 -4.28125 L 3.421875 -4.28125 C 3.910156 -4.28125 4.269531 -4.367188 4.5 -4.546875 C 4.738281 -4.734375 4.859375 -5.007812 4.859375 -5.375 C 4.859375 -5.75 4.738281 -6.023438 4.5 -6.203125 C 4.269531 -6.390625 3.910156 -6.484375 3.421875 -6.484375 Z M 0.984375 -7.296875 L 3.5 -7.296875 C 4.25 -7.296875 4.828125 -7.140625 5.234375 -6.828125 C 5.640625 -6.515625 5.84375 -6.066406 5.84375 -5.484375 C 5.84375 -5.035156 5.738281 -4.679688 5.53125 -4.421875 C 5.320312 -4.160156 5.019531 -4 4.625 -3.9375 C 5.101562 -3.832031 5.476562 -3.613281 5.75 -3.28125 C 6.019531 -2.945312 6.15625 -2.535156 6.15625 -2.046875 C 6.15625 -1.390625 5.929688 -0.882812 5.484375 -0.53125 C 5.046875 -0.175781 4.414062 0 3.59375 0 L 0.984375 0 Z M 0.984375 -7.296875 "/>
</symbol>
<symbol overflow="visible" id="glyph0-4">
<path style="stroke:none;" d="M 0.9375 -5.46875 L 1.84375 -5.46875 L 1.84375 0 L 0.9375 0 Z M 0.9375 -7.59375 L 1.84375 -7.59375 L 1.84375 -6.453125 L 0.9375 -6.453125 Z M 0.9375 -7.59375 "/>
</symbol>
<symbol overflow="visible" id="glyph0-5">
<path style="stroke:none;" d="M 1.828125 -7.015625 L 1.828125 -5.46875 L 3.6875 -5.46875 L 3.6875 -4.765625 L 1.828125 -4.765625 L 1.828125 -1.796875 C 1.828125 -1.359375 1.890625 -1.070312 2.015625 -0.9375 C 2.140625 -0.8125 2.390625 -0.75 2.765625 -0.75 L 3.6875 -0.75 L 3.6875 0 L 2.765625 0 C 2.066406 0 1.582031 -0.128906 1.3125 -0.390625 C 1.050781 -0.648438 0.921875 -1.117188 0.921875 -1.796875 L 0.921875 -4.765625 L 0.265625 -4.765625 L 0.265625 -5.46875 L 0.921875 -5.46875 L 0.921875 -7.015625 Z M 1.828125 -7.015625 "/>
</symbol>
<symbol overflow="visible" id="glyph0-6">
<path style="stroke:none;" d="M 4.421875 -5.3125 L 4.421875 -4.453125 C 4.171875 -4.585938 3.910156 -4.6875 3.640625 -4.75 C 3.367188 -4.8125 3.082031 -4.84375 2.78125 -4.84375 C 2.34375 -4.84375 2.007812 -4.773438 1.78125 -4.640625 C 1.5625 -4.503906 1.453125 -4.300781 1.453125 -4.03125 C 1.453125 -3.820312 1.53125 -3.65625 1.6875 -3.53125 C 1.84375 -3.414062 2.164062 -3.304688 2.65625 -3.203125 L 2.953125 -3.125 C 3.597656 -2.988281 4.050781 -2.796875 4.3125 -2.546875 C 4.582031 -2.296875 4.71875 -1.953125 4.71875 -1.515625 C 4.71875 -1.003906 4.515625 -0.597656 4.109375 -0.296875 C 3.710938 -0.00390625 3.164062 0.140625 2.46875 0.140625 C 2.164062 0.140625 1.851562 0.109375 1.53125 0.046875 C 1.21875 -0.00390625 0.890625 -0.0859375 0.546875 -0.203125 L 0.546875 -1.125 C 0.878906 -0.957031 1.203125 -0.828125 1.515625 -0.734375 C 1.835938 -0.648438 2.160156 -0.609375 2.484375 -0.609375 C 2.898438 -0.609375 3.222656 -0.679688 3.453125 -0.828125 C 3.679688 -0.972656 3.796875 -1.175781 3.796875 -1.4375 C 3.796875 -1.6875 3.710938 -1.875 3.546875 -2 C 3.390625 -2.132812 3.03125 -2.257812 2.46875 -2.375 L 2.15625 -2.453125 C 1.601562 -2.566406 1.203125 -2.742188 0.953125 -2.984375 C 0.703125 -3.234375 0.578125 -3.566406 0.578125 -3.984375 C 0.578125 -4.503906 0.757812 -4.898438 1.125 -5.171875 C 1.488281 -5.453125 2.007812 -5.59375 2.6875 -5.59375 C 3.007812 -5.59375 3.316406 -5.566406 3.609375 -5.515625 C 3.910156 -5.472656 4.179688 -5.40625 4.421875 -5.3125 Z M 4.421875 -5.3125 "/>
</symbol>
<symbol overflow="visible" id="glyph0-7">
<path style="stroke:none;" d=""/>
</symbol>
<symbol overflow="visible" id="glyph0-8">
<path style="stroke:none;" d="M 1.8125 -0.828125 L 1.8125 2.078125 L 0.90625 2.078125 L 0.90625 -5.46875 L 1.8125 -5.46875 L 1.8125 -4.640625 C 2 -4.960938 2.234375 -5.203125 2.515625 -5.359375 C 2.804688 -5.515625 3.15625 -5.59375 3.5625 -5.59375 C 4.226562 -5.59375 4.765625 -5.328125 5.171875 -4.796875 C 5.585938 -4.273438 5.796875 -3.585938 5.796875 -2.734375 C 5.796875 -1.867188 5.585938 -1.171875 5.171875 -0.640625 C 4.765625 -0.117188 4.226562 0.140625 3.5625 0.140625 C 3.15625 0.140625 2.804688 0.0625 2.515625 -0.09375 C 2.234375 -0.25 2 -0.492188 1.8125 -0.828125 Z M 4.875 -2.734375 C 4.875 -3.390625 4.734375 -3.90625 4.453125 -4.28125 C 4.179688 -4.65625 3.8125 -4.84375 3.34375 -4.84375 C 2.863281 -4.84375 2.488281 -4.65625 2.21875 -4.28125 C 1.945312 -3.90625 1.8125 -3.390625 1.8125 -2.734375 C 1.8125 -2.066406 1.945312 -1.546875 2.21875 -1.171875 C 2.488281 -0.796875 2.863281 -0.609375 3.34375 -0.609375 C 3.8125 -0.609375 4.179688 -0.796875 4.453125 -1.171875 C 4.734375 -1.546875 4.875 -2.066406 4.875 -2.734375 Z M 4.875 -2.734375 "/>
</symbol>
<symbol overflow="visible" id="glyph0-9">
<path style="stroke:none;" d="M 5.625 -2.953125 L 5.625 -2.515625 L 1.484375 -2.515625 C 1.523438 -1.898438 1.710938 -1.429688 2.046875 -1.109375 C 2.378906 -0.785156 2.84375 -0.625 3.4375 -0.625 C 3.78125 -0.625 4.113281 -0.664062 4.4375 -0.75 C 4.769531 -0.832031 5.09375 -0.957031 5.40625 -1.125 L 5.40625 -0.28125 C 5.082031 -0.144531 4.75 -0.0390625 4.40625 0.03125 C 4.070312 0.101562 3.734375 0.140625 3.390625 0.140625 C 2.515625 0.140625 1.820312 -0.109375 1.3125 -0.609375 C 0.800781 -1.117188 0.546875 -1.8125 0.546875 -2.6875 C 0.546875 -3.582031 0.785156 -4.289062 1.265625 -4.8125 C 1.753906 -5.332031 2.410156 -5.59375 3.234375 -5.59375 C 3.972656 -5.59375 4.554688 -5.359375 4.984375 -4.890625 C 5.410156 -4.421875 5.625 -3.773438 5.625 -2.953125 Z M 4.71875 -3.21875 C 4.71875 -3.707031 4.582031 -4.097656 4.3125 -4.390625 C 4.039062 -4.691406 3.6875 -4.84375 3.25 -4.84375 C 2.738281 -4.84375 2.332031 -4.695312 2.03125 -4.40625 C 1.738281 -4.125 1.566406 -3.726562 1.515625 -3.21875 Z M 4.71875 -3.21875 "/>
</symbol>
<symbol overflow="visible" id="glyph0-10">
<path style="stroke:none;" d="M 4.109375 -4.625 C 4.003906 -4.6875 3.894531 -4.726562 3.78125 -4.75 C 3.664062 -4.78125 3.535156 -4.796875 3.390625 -4.796875 C 2.878906 -4.796875 2.488281 -4.628906 2.21875 -4.296875 C 1.945312 -3.972656 1.8125 -3.5 1.8125 -2.875 L 1.8125 0 L 0.90625 0 L 0.90625 -5.46875 L 1.8125 -5.46875 L 1.8125 -4.625 C 2 -4.957031 2.242188 -5.203125 2.546875 -5.359375 C 2.847656 -5.515625 3.21875 -5.59375 3.65625 -5.59375 C 3.71875 -5.59375 3.785156 -5.585938 3.859375 -5.578125 C 3.929688 -5.578125 4.015625 -5.566406 4.109375 -5.546875 Z M 4.109375 -4.625 "/>
</symbol>
<symbol overflow="visible" id="glyph0-11">
<path style="stroke:none;" d="M 5.484375 -5.46875 L 3.515625 -2.8125 L 5.59375 0 L 4.53125 0 L 2.9375 -2.15625 L 1.34375 0 L 0.28125 0 L 2.40625 -2.859375 L 0.46875 -5.46875 L 1.53125 -5.46875 L 2.984375 -3.515625 L 4.421875 -5.46875 Z M 5.484375 -5.46875 "/>
</symbol>
<symbol overflow="visible" id="glyph0-12">
<path style="stroke:none;" d="M 0.9375 -7.59375 L 1.84375 -7.59375 L 1.84375 0 L 0.9375 0 Z M 0.9375 -7.59375 "/>
</symbol>
<symbol overflow="visible" id="glyph0-13">
<path style="stroke:none;" d="M 0.9375 -5.46875 L 1.84375 -5.46875 L 1.84375 0.09375 C 1.84375 0.789062 1.707031 1.296875 1.4375 1.609375 C 1.175781 1.921875 0.75 2.078125 0.15625 2.078125 L -0.1875 2.078125 L -0.1875 1.3125 L 0.0625 1.3125 C 0.40625 1.3125 0.632812 1.234375 0.75 1.078125 C 0.875 0.921875 0.9375 0.59375 0.9375 0.09375 Z M 0.9375 -7.59375 L 1.84375 -7.59375 L 1.84375 -6.453125 L 0.9375 -6.453125 Z M 0.9375 -7.59375 "/>
</symbol>
<symbol overflow="visible" id="glyph0-14">
<path style="stroke:none;" d="M 5.09375 1.65625 L 5.09375 2.359375 L -0.09375 2.359375 L -0.09375 1.65625 Z M 5.09375 1.65625 "/>
</symbol>
<symbol overflow="visible" id="glyph0-15">
<path style="stroke:none;" d="M 1.0625 -1.234375 L 2.09375 -1.234375 L 2.09375 0 L 1.0625 0 Z M 1.0625 -1.234375 "/>
</symbol>
<symbol overflow="visible" id="glyph0-16">
<path style="stroke:none;" d="M 4.0625 -3.9375 C 4.53125 -3.832031 4.894531 -3.617188 5.15625 -3.296875 C 5.425781 -2.984375 5.5625 -2.59375 5.5625 -2.125 C 5.5625 -1.40625 5.3125 -0.847656 4.8125 -0.453125 C 4.320312 -0.0546875 3.617188 0.140625 2.703125 0.140625 C 2.398438 0.140625 2.085938 0.109375 1.765625 0.046875 C 1.441406 -0.015625 1.109375 -0.101562 0.765625 -0.21875 L 0.765625 -1.171875 C 1.035156 -1.015625 1.332031 -0.894531 1.65625 -0.8125 C 1.988281 -0.726562 2.332031 -0.6875 2.6875 -0.6875 C 3.300781 -0.6875 3.769531 -0.804688 4.09375 -1.046875 C 4.414062 -1.296875 4.578125 -1.65625 4.578125 -2.125 C 4.578125 -2.550781 4.425781 -2.882812 4.125 -3.125 C 3.820312 -3.363281 3.40625 -3.484375 2.875 -3.484375 L 2.015625 -3.484375 L 2.015625 -4.296875 L 2.90625 -4.296875 C 3.394531 -4.296875 3.765625 -4.394531 4.015625 -4.59375 C 4.273438 -4.789062 4.40625 -5.070312 4.40625 -5.4375 C 4.40625 -5.800781 4.269531 -6.082031 4 -6.28125 C 3.738281 -6.488281 3.363281 -6.59375 2.875 -6.59375 C 2.601562 -6.59375 2.3125 -6.5625 2 -6.5 C 1.6875 -6.445312 1.347656 -6.359375 0.984375 -6.234375 L 0.984375 -7.109375 C 1.359375 -7.210938 1.707031 -7.289062 2.03125 -7.34375 C 2.363281 -7.394531 2.671875 -7.421875 2.953125 -7.421875 C 3.703125 -7.421875 4.296875 -7.25 4.734375 -6.90625 C 5.171875 -6.570312 5.390625 -6.113281 5.390625 -5.53125 C 5.390625 -5.125 5.273438 -4.78125 5.046875 -4.5 C 4.816406 -4.226562 4.488281 -4.039062 4.0625 -3.9375 Z M 4.0625 -3.9375 "/>
</symbol>
<symbol overflow="visible" id="glyph0-17">
<path style="stroke:none;" d="M 0.828125 -7.296875 L 5.515625 -7.296875 L 5.515625 -6.875 L 2.859375 0 L 1.828125 0 L 4.328125 -6.453125 L 0.828125 -6.453125 Z M 0.828125 -7.296875 "/>
</symbol>
<symbol overflow="visible" id="glyph0-18">
<path style="stroke:none;" d="M 1.921875 -0.828125 L 5.359375 -0.828125 L 5.359375 0 L 0.734375 0 L 0.734375 -0.828125 C 1.109375 -1.210938 1.617188 -1.734375 2.265625 -2.390625 C 2.910156 -3.046875 3.316406 -3.46875 3.484375 -3.65625 C 3.796875 -4.007812 4.015625 -4.304688 4.140625 -4.546875 C 4.265625 -4.796875 4.328125 -5.039062 4.328125 -5.28125 C 4.328125 -5.664062 4.191406 -5.976562 3.921875 -6.21875 C 3.648438 -6.46875 3.296875 -6.59375 2.859375 -6.59375 C 2.546875 -6.59375 2.21875 -6.535156 1.875 -6.421875 C 1.539062 -6.316406 1.175781 -6.15625 0.78125 -5.9375 L 0.78125 -6.9375 C 1.175781 -7.09375 1.546875 -7.210938 1.890625 -7.296875 C 2.234375 -7.378906 2.550781 -7.421875 2.84375 -7.421875 C 3.59375 -7.421875 4.191406 -7.234375 4.640625 -6.859375 C 5.097656 -6.484375 5.328125 -5.976562 5.328125 -5.34375 C 5.328125 -5.039062 5.269531 -4.753906 5.15625 -4.484375 C 5.039062 -4.222656 4.835938 -3.910156 4.546875 -3.546875 C 4.460938 -3.453125 4.203125 -3.175781 3.765625 -2.71875 C 3.328125 -2.269531 2.710938 -1.640625 1.921875 -0.828125 Z M 1.921875 -0.828125 "/>
</symbol>
<symbol overflow="visible" id="glyph0-19">
<path style="stroke:none;" d="M 1.078125 -7.296875 L 4.953125 -7.296875 L 4.953125 -6.453125 L 1.984375 -6.453125 L 1.984375 -4.671875 C 2.128906 -4.722656 2.269531 -4.757812 2.40625 -4.78125 C 2.550781 -4.800781 2.695312 -4.8125 2.84375 -4.8125 C 3.65625 -4.8125 4.296875 -4.585938 4.765625 -4.140625 C 5.242188 -3.703125 5.484375 -3.101562 5.484375 -2.34375 C 5.484375 -1.550781 5.238281 -0.9375 4.75 -0.5 C 4.269531 -0.0703125 3.582031 0.140625 2.6875 0.140625 C 2.382812 0.140625 2.070312 0.113281 1.75 0.0625 C 1.4375 0.0078125 1.109375 -0.0664062 0.765625 -0.171875 L 0.765625 -1.15625 C 1.066406 -1 1.375 -0.878906 1.6875 -0.796875 C 2 -0.722656 2.328125 -0.6875 2.671875 -0.6875 C 3.234375 -0.6875 3.675781 -0.832031 4 -1.125 C 4.332031 -1.425781 4.5 -1.832031 4.5 -2.34375 C 4.5 -2.84375 4.332031 -3.238281 4 -3.53125 C 3.675781 -3.832031 3.234375 -3.984375 2.671875 -3.984375 C 2.410156 -3.984375 2.144531 -3.953125 1.875 -3.890625 C 1.613281 -3.835938 1.347656 -3.75 1.078125 -3.625 Z M 1.078125 -7.296875 "/>
</symbol>
<symbol overflow="visible" id="glyph1-0">
<path style="stroke:none;" d="M 0.34375 1.234375 L 0.34375 -4.9375 L 3.84375 -4.9375 L 3.84375 1.234375 Z M 0.734375 0.84375 L 3.453125 0.84375 L 3.453125 -4.546875 L 0.734375 -4.546875 Z M 0.734375 0.84375 "/>
</symbol>
<symbol overflow="visible" id="glyph1-1">
<path style="stroke:none;" d="M 0.734375 -2.484375 L 5.125 -2.484375 L 5.125 -1.90625 L 0.734375 -1.90625 Z M 0.734375 -2.484375 "/>
</symbol>
<symbol overflow="visible" id="glyph1-2">
<path style="stroke:none;" d="M 0.875 -0.578125 L 2 -0.578125 L 2 -4.46875 L 0.765625 -4.234375 L 0.765625 -4.859375 L 1.984375 -5.109375 L 2.6875 -5.109375 L 2.6875 -0.578125 L 3.8125 -0.578125 L 3.8125 0 L 0.875 0 Z M 0.875 -0.578125 "/>
</symbol>
<symbol overflow="visible" id="glyph1-3">
<path style="stroke:none;" d="M 2.21875 -4.65625 C 1.863281 -4.65625 1.597656 -4.476562 1.421875 -4.125 C 1.242188 -3.769531 1.15625 -3.242188 1.15625 -2.546875 C 1.15625 -1.847656 1.242188 -1.320312 1.421875 -0.96875 C 1.597656 -0.625 1.863281 -0.453125 2.21875 -0.453125 C 2.582031 -0.453125 2.851562 -0.625 3.03125 -0.96875 C 3.207031 -1.320312 3.296875 -1.847656 3.296875 -2.546875 C 3.296875 -3.242188 3.207031 -3.769531 3.03125 -4.125 C 2.851562 -4.476562 2.582031 -4.65625 2.21875 -4.65625 Z M 2.21875 -5.203125 C 2.789062 -5.203125 3.226562 -4.972656 3.53125 -4.515625 C 3.832031 -4.066406 3.984375 -3.410156 3.984375 -2.546875 C 3.984375 -1.691406 3.832031 -1.035156 3.53125 -0.578125 C 3.226562 -0.128906 2.789062 0.09375 2.21875 0.09375 C 1.65625 0.09375 1.222656 -0.128906 0.921875 -0.578125 C 0.617188 -1.035156 0.46875 -1.691406 0.46875 -2.546875 C 0.46875 -3.410156 0.617188 -4.066406 0.921875 -4.515625 C 1.222656 -4.972656 1.65625 -5.203125 2.21875 -5.203125 Z M 2.21875 -5.203125 "/>
</symbol>
<symbol overflow="visible" id="glyph1-4">
<path style="stroke:none;" d="M 1.34375 -0.578125 L 3.75 -0.578125 L 3.75 0 L 0.515625 0 L 0.515625 -0.578125 C 0.773438 -0.847656 1.128906 -1.210938 1.578125 -1.671875 C 2.035156 -2.128906 2.320312 -2.425781 2.4375 -2.5625 C 2.65625 -2.800781 2.804688 -3.007812 2.890625 -3.1875 C 2.984375 -3.363281 3.03125 -3.53125 3.03125 -3.6875 C 3.03125 -3.96875 2.9375 -4.191406 2.75 -4.359375 C 2.5625 -4.523438 2.3125 -4.609375 2 -4.609375 C 1.78125 -4.609375 1.550781 -4.570312 1.3125 -4.5 C 1.070312 -4.425781 0.816406 -4.3125 0.546875 -4.15625 L 0.546875 -4.859375 C 0.828125 -4.972656 1.085938 -5.054688 1.328125 -5.109375 C 1.566406 -5.171875 1.785156 -5.203125 1.984375 -5.203125 C 2.515625 -5.203125 2.9375 -5.066406 3.25 -4.796875 C 3.5625 -4.535156 3.71875 -4.179688 3.71875 -3.734375 C 3.71875 -3.523438 3.675781 -3.328125 3.59375 -3.140625 C 3.519531 -2.953125 3.378906 -2.734375 3.171875 -2.484375 C 3.117188 -2.410156 2.9375 -2.21875 2.625 -1.90625 C 2.320312 -1.59375 1.894531 -1.148438 1.34375 -0.578125 Z M 1.34375 -0.578125 "/>
</symbol>
<symbol overflow="visible" id="glyph2-0">
<path style="stroke:none;" d="M 1.765625 -0.5 L -7.046875 -0.5 L -7.046875 -5.5 L 1.765625 -5.5 Z M 1.21875 -1.0625 L 1.21875 -4.9375 L -6.484375 -4.9375 L -6.484375 -1.0625 Z M 1.21875 -1.0625 "/>
</symbol>
<symbol overflow="visible" id="glyph2-1">
<path style="stroke:none;" d="M -7.296875 0.03125 L -7.296875 -6.140625 L -6.453125 -6.140625 L -6.453125 -3.546875 L 0 -3.546875 L 0 -2.5625 L -6.453125 -2.5625 L -6.453125 0.03125 Z M -7.296875 0.03125 "/>
</symbol>
<symbol overflow="visible" id="glyph2-2">
<path style="stroke:none;" d="M -5.46875 -0.9375 L -5.46875 -1.84375 L 0 -1.84375 L 0 -0.9375 Z M -7.59375 -0.9375 L -7.59375 -1.84375 L -6.453125 -1.84375 L -6.453125 -0.9375 Z M -7.59375 -0.9375 "/>
</symbol>
<symbol overflow="visible" id="glyph2-3">
<path style="stroke:none;" d="M -4.421875 -5.203125 C -4.828125 -5.421875 -5.125 -5.6875 -5.3125 -6 C -5.5 -6.3125 -5.59375 -6.679688 -5.59375 -7.109375 C -5.59375 -7.679688 -5.394531 -8.117188 -5 -8.421875 C -4.601562 -8.734375 -4.035156 -8.890625 -3.296875 -8.890625 L 0 -8.890625 L 0 -7.984375 L -3.265625 -7.984375 C -3.796875 -7.984375 -4.1875 -7.890625 -4.4375 -7.703125 C -4.6875 -7.523438 -4.8125 -7.242188 -4.8125 -6.859375 C -4.8125 -6.390625 -4.65625 -6.019531 -4.34375 -5.75 C -4.039062 -5.488281 -3.625 -5.359375 -3.09375 -5.359375 L 0 -5.359375 L 0 -4.453125 L -3.265625 -4.453125 C -3.796875 -4.453125 -4.1875 -4.359375 -4.4375 -4.171875 C -4.6875 -3.984375 -4.8125 -3.695312 -4.8125 -3.3125 C -4.8125 -2.851562 -4.65625 -2.488281 -4.34375 -2.21875 C -4.039062 -1.945312 -3.625 -1.8125 -3.09375 -1.8125 L 0 -1.8125 L 0 -0.90625 L -5.46875 -0.90625 L -5.46875 -1.8125 L -4.625 -1.8125 C -4.957031 -2.019531 -5.203125 -2.265625 -5.359375 -2.546875 C -5.515625 -2.835938 -5.59375 -3.175781 -5.59375 -3.5625 C -5.59375 -3.96875 -5.492188 -4.304688 -5.296875 -4.578125 C -5.097656 -4.859375 -4.804688 -5.066406 -4.421875 -5.203125 Z M -4.421875 -5.203125 "/>
</symbol>
<symbol overflow="visible" id="glyph2-4">
<path style="stroke:none;" d="M -2.953125 -5.625 L -2.515625 -5.625 L -2.515625 -1.484375 C -1.898438 -1.523438 -1.429688 -1.710938 -1.109375 -2.046875 C -0.785156 -2.378906 -0.625 -2.84375 -0.625 -3.4375 C -0.625 -3.78125 -0.664062 -4.113281 -0.75 -4.4375 C -0.832031 -4.769531 -0.957031 -5.09375 -1.125 -5.40625 L -0.28125 -5.40625 C -0.144531 -5.082031 -0.0390625 -4.75 0.03125 -4.40625 C 0.101562 -4.070312 0.140625 -3.734375 0.140625 -3.390625 C 0.140625 -2.515625 -0.109375 -1.820312 -0.609375 -1.3125 C -1.117188 -0.800781 -1.8125 -0.546875 -2.6875 -0.546875 C -3.582031 -0.546875 -4.289062 -0.785156 -4.8125 -1.265625 C -5.332031 -1.753906 -5.59375 -2.410156 -5.59375 -3.234375 C -5.59375 -3.972656 -5.359375 -4.554688 -4.890625 -4.984375 C -4.421875 -5.410156 -3.773438 -5.625 -2.953125 -5.625 Z M -3.21875 -4.71875 C -3.707031 -4.71875 -4.097656 -4.582031 -4.390625 -4.3125 C -4.691406 -4.039062 -4.84375 -3.6875 -4.84375 -3.25 C -4.84375 -2.738281 -4.695312 -2.332031 -4.40625 -2.03125 C -4.125 -1.738281 -3.726562 -1.566406 -3.21875 -1.515625 Z M -3.21875 -4.71875 "/>
</symbol>
<symbol overflow="visible" id="glyph2-5">
<path style="stroke:none;" d=""/>
</symbol>
<symbol overflow="visible" id="glyph2-6">
<path style="stroke:none;" d="M -7.59375 -3.09375 C -6.84375 -2.664062 -6.097656 -2.34375 -5.359375 -2.125 C -4.628906 -1.914062 -3.890625 -1.8125 -3.140625 -1.8125 C -2.390625 -1.8125 -1.644531 -1.914062 -0.90625 -2.125 C -0.164062 -2.34375 0.570312 -2.664062 1.3125 -3.09375 L 1.3125 -2.3125 C 0.550781 -1.832031 -0.195312 -1.46875 -0.9375 -1.21875 C -1.675781 -0.976562 -2.410156 -0.859375 -3.140625 -0.859375 C -3.867188 -0.859375 -4.597656 -0.976562 -5.328125 -1.21875 C -6.066406 -1.457031 -6.820312 -1.820312 -7.59375 -2.3125 Z M -7.59375 -3.09375 "/>
</symbol>
<symbol overflow="visible" id="glyph2-7">
<path style="stroke:none;" d="M -5.3125 -4.421875 L -4.453125 -4.421875 C -4.585938 -4.171875 -4.6875 -3.910156 -4.75 -3.640625 C -4.8125 -3.367188 -4.84375 -3.082031 -4.84375 -2.78125 C -4.84375 -2.34375 -4.773438 -2.007812 -4.640625 -1.78125 C -4.503906 -1.5625 -4.300781 -1.453125 -4.03125 -1.453125 C -3.820312 -1.453125 -3.65625 -1.53125 -3.53125 -1.6875 C -3.414062 -1.84375 -3.304688 -2.164062 -3.203125 -2.65625 L -3.125 -2.953125 C -2.988281 -3.597656 -2.796875 -4.050781 -2.546875 -4.3125 C -2.296875 -4.582031 -1.953125 -4.71875 -1.515625 -4.71875 C -1.003906 -4.71875 -0.597656 -4.515625 -0.296875 -4.109375 C -0.00390625 -3.710938 0.140625 -3.164062 0.140625 -2.46875 C 0.140625 -2.164062 0.109375 -1.851562 0.046875 -1.53125 C -0.00390625 -1.21875 -0.0859375 -0.890625 -0.203125 -0.546875 L -1.125 -0.546875 C -0.957031 -0.878906 -0.828125 -1.203125 -0.734375 -1.515625 C -0.648438 -1.835938 -0.609375 -2.160156 -0.609375 -2.484375 C -0.609375 -2.898438 -0.679688 -3.222656 -0.828125 -3.453125 C -0.972656 -3.679688 -1.175781 -3.796875 -1.4375 -3.796875 C -1.6875 -3.796875 -1.875 -3.710938 -2 -3.546875 C -2.132812 -3.390625 -2.257812 -3.03125 -2.375 -2.46875 L -2.453125 -2.15625 C -2.566406 -1.601562 -2.742188 -1.203125 -2.984375 -0.953125 C -3.234375 -0.703125 -3.566406 -0.578125 -3.984375 -0.578125 C -4.503906 -0.578125 -4.898438 -0.757812 -5.171875 -1.125 C -5.453125 -1.488281 -5.59375 -2.007812 -5.59375 -2.6875 C -5.59375 -3.007812 -5.566406 -3.316406 -5.515625 -3.609375 C -5.472656 -3.910156 -5.40625 -4.179688 -5.3125 -4.421875 Z M -5.3125 -4.421875 "/>
</symbol>
<symbol overflow="visible" id="glyph2-8">
<path style="stroke:none;" d="M -7.59375 -0.796875 L -7.59375 -1.578125 C -6.820312 -2.066406 -6.066406 -2.429688 -5.328125 -2.671875 C -4.597656 -2.921875 -3.867188 -3.046875 -3.140625 -3.046875 C -2.410156 -3.046875 -1.675781 -2.921875 -0.9375 -2.671875 C -0.195312 -2.429688 0.550781 -2.066406 1.3125 -1.578125 L 1.3125 -0.796875 C 0.570312 -1.234375 -0.164062 -1.554688 -0.90625 -1.765625 C -1.644531 -1.984375 -2.390625 -2.09375 -3.140625 -2.09375 C -3.890625 -2.09375 -4.628906 -1.984375 -5.359375 -1.765625 C -6.097656 -1.554688 -6.84375 -1.234375 -7.59375 -0.796875 Z M -7.59375 -0.796875 "/>
</symbol>
<symbol overflow="visible" id="glyph3-0">
<path style="stroke:none;" d="M 0.59375 2.125 L 0.59375 -8.46875 L 6.59375 -8.46875 L 6.59375 2.125 Z M 1.265625 1.453125 L 5.9375 1.453125 L 5.9375 -7.78125 L 1.265625 -7.78125 Z M 1.265625 1.453125 "/>
</symbol>
<symbol overflow="visible" id="glyph3-1">
<path style="stroke:none;" d="M 1.171875 -8.75 L 6.703125 -8.75 L 6.703125 -7.75 L 2.359375 -7.75 L 2.359375 -5.15625 L 6.53125 -5.15625 L 6.53125 -4.171875 L 2.359375 -4.171875 L 2.359375 -1 L 6.8125 -1 L 6.8125 0 L 1.171875 0 Z M 1.171875 -8.75 "/>
</symbol>
<symbol overflow="visible" id="glyph3-2">
<path style="stroke:none;" d="M 6.59375 -3.96875 L 6.59375 0 L 5.515625 0 L 5.515625 -3.921875 C 5.515625 -4.546875 5.390625 -5.007812 5.140625 -5.3125 C 4.898438 -5.625 4.539062 -5.78125 4.0625 -5.78125 C 3.476562 -5.78125 3.015625 -5.59375 2.671875 -5.21875 C 2.335938 -4.851562 2.171875 -4.347656 2.171875 -3.703125 L 2.171875 0 L 1.09375 0 L 1.09375 -6.5625 L 2.171875 -6.5625 L 2.171875 -5.546875 C 2.429688 -5.941406 2.734375 -6.234375 3.078125 -6.421875 C 3.429688 -6.617188 3.835938 -6.71875 4.296875 -6.71875 C 5.046875 -6.71875 5.613281 -6.484375 6 -6.015625 C 6.394531 -5.554688 6.59375 -4.875 6.59375 -3.96875 Z M 6.59375 -3.96875 "/>
</symbol>
<symbol overflow="visible" id="glyph3-3">
<path style="stroke:none;" d="M 5.859375 -6.3125 L 5.859375 -5.296875 C 5.546875 -5.472656 5.238281 -5.601562 4.9375 -5.6875 C 4.632812 -5.769531 4.328125 -5.8125 4.015625 -5.8125 C 3.304688 -5.8125 2.757812 -5.585938 2.375 -5.140625 C 1.988281 -4.703125 1.796875 -4.082031 1.796875 -3.28125 C 1.796875 -2.476562 1.988281 -1.851562 2.375 -1.40625 C 2.757812 -0.96875 3.304688 -0.75 4.015625 -0.75 C 4.328125 -0.75 4.632812 -0.789062 4.9375 -0.875 C 5.238281 -0.957031 5.546875 -1.082031 5.859375 -1.25 L 5.859375 -0.25 C 5.554688 -0.113281 5.242188 -0.0078125 4.921875 0.0625 C 4.597656 0.132812 4.253906 0.171875 3.890625 0.171875 C 2.898438 0.171875 2.113281 -0.132812 1.53125 -0.75 C 0.945312 -1.375 0.65625 -2.21875 0.65625 -3.28125 C 0.65625 -4.34375 0.945312 -5.179688 1.53125 -5.796875 C 2.125 -6.410156 2.9375 -6.71875 3.96875 -6.71875 C 4.289062 -6.71875 4.609375 -6.679688 4.921875 -6.609375 C 5.242188 -6.546875 5.554688 -6.445312 5.859375 -6.3125 Z M 5.859375 -6.3125 "/>
</symbol>
<symbol overflow="visible" id="glyph3-4">
<path style="stroke:none;" d="M 3.671875 -5.8125 C 3.097656 -5.8125 2.640625 -5.582031 2.296875 -5.125 C 1.960938 -4.675781 1.796875 -4.0625 1.796875 -3.28125 C 1.796875 -2.488281 1.960938 -1.867188 2.296875 -1.421875 C 2.628906 -0.972656 3.085938 -0.75 3.671875 -0.75 C 4.242188 -0.75 4.695312 -0.972656 5.03125 -1.421875 C 5.375 -1.878906 5.546875 -2.5 5.546875 -3.28125 C 5.546875 -4.050781 5.375 -4.664062 5.03125 -5.125 C 4.695312 -5.582031 4.242188 -5.8125 3.671875 -5.8125 Z M 3.671875 -6.71875 C 4.609375 -6.71875 5.34375 -6.410156 5.875 -5.796875 C 6.414062 -5.191406 6.6875 -4.351562 6.6875 -3.28125 C 6.6875 -2.207031 6.414062 -1.363281 5.875 -0.75 C 5.34375 -0.132812 4.609375 0.171875 3.671875 0.171875 C 2.734375 0.171875 1.992188 -0.132812 1.453125 -0.75 C 0.921875 -1.363281 0.65625 -2.207031 0.65625 -3.28125 C 0.65625 -4.351562 0.921875 -5.191406 1.453125 -5.796875 C 1.992188 -6.410156 2.734375 -6.71875 3.671875 -6.71875 Z M 3.671875 -6.71875 "/>
</symbol>
<symbol overflow="visible" id="glyph3-5">
<path style="stroke:none;" d="M 5.453125 -5.5625 L 5.453125 -9.125 L 6.53125 -9.125 L 6.53125 0 L 5.453125 0 L 5.453125 -0.984375 C 5.222656 -0.597656 4.9375 -0.304688 4.59375 -0.109375 C 4.25 0.078125 3.832031 0.171875 3.34375 0.171875 C 2.550781 0.171875 1.90625 -0.144531 1.40625 -0.78125 C 0.90625 -1.414062 0.65625 -2.25 0.65625 -3.28125 C 0.65625 -4.3125 0.90625 -5.140625 1.40625 -5.765625 C 1.90625 -6.398438 2.550781 -6.71875 3.34375 -6.71875 C 3.832031 -6.71875 4.25 -6.625 4.59375 -6.4375 C 4.9375 -6.25 5.222656 -5.957031 5.453125 -5.5625 Z M 1.78125 -3.28125 C 1.78125 -2.488281 1.941406 -1.863281 2.265625 -1.40625 C 2.585938 -0.957031 3.035156 -0.734375 3.609375 -0.734375 C 4.179688 -0.734375 4.628906 -0.957031 4.953125 -1.40625 C 5.285156 -1.863281 5.453125 -2.488281 5.453125 -3.28125 C 5.453125 -4.070312 5.285156 -4.691406 4.953125 -5.140625 C 4.628906 -5.585938 4.179688 -5.8125 3.609375 -5.8125 C 3.035156 -5.8125 2.585938 -5.585938 2.265625 -5.140625 C 1.941406 -4.691406 1.78125 -4.070312 1.78125 -3.28125 Z M 1.78125 -3.28125 "/>
</symbol>
<symbol overflow="visible" id="glyph3-6">
<path style="stroke:none;" d="M 1.125 -6.5625 L 2.203125 -6.5625 L 2.203125 0 L 1.125 0 Z M 1.125 -9.125 L 2.203125 -9.125 L 2.203125 -7.75 L 1.125 -7.75 Z M 1.125 -9.125 "/>
</symbol>
<symbol overflow="visible" id="glyph3-7">
<path style="stroke:none;" d="M 5.453125 -3.359375 C 5.453125 -4.140625 5.289062 -4.742188 4.96875 -5.171875 C 4.644531 -5.597656 4.191406 -5.8125 3.609375 -5.8125 C 3.035156 -5.8125 2.585938 -5.597656 2.265625 -5.171875 C 1.941406 -4.742188 1.78125 -4.140625 1.78125 -3.359375 C 1.78125 -2.578125 1.941406 -1.972656 2.265625 -1.546875 C 2.585938 -1.117188 3.035156 -0.90625 3.609375 -0.90625 C 4.191406 -0.90625 4.644531 -1.117188 4.96875 -1.546875 C 5.289062 -1.972656 5.453125 -2.578125 5.453125 -3.359375 Z M 6.53125 -0.8125 C 6.53125 0.300781 6.28125 1.128906 5.78125 1.671875 C 5.289062 2.222656 4.53125 2.5 3.5 2.5 C 3.125 2.5 2.765625 2.46875 2.421875 2.40625 C 2.085938 2.351562 1.765625 2.269531 1.453125 2.15625 L 1.453125 1.109375 C 1.765625 1.273438 2.078125 1.398438 2.390625 1.484375 C 2.703125 1.566406 3.015625 1.609375 3.328125 1.609375 C 4.035156 1.609375 4.566406 1.421875 4.921875 1.046875 C 5.273438 0.679688 5.453125 0.125 5.453125 -0.625 L 5.453125 -1.15625 C 5.222656 -0.769531 4.9375 -0.476562 4.59375 -0.28125 C 4.25 -0.09375 3.832031 0 3.34375 0 C 2.539062 0 1.890625 -0.304688 1.390625 -0.921875 C 0.898438 -1.535156 0.65625 -2.347656 0.65625 -3.359375 C 0.65625 -4.367188 0.898438 -5.179688 1.390625 -5.796875 C 1.890625 -6.410156 2.539062 -6.71875 3.34375 -6.71875 C 3.832031 -6.71875 4.25 -6.617188 4.59375 -6.421875 C 4.9375 -6.234375 5.222656 -5.945312 5.453125 -5.5625 L 5.453125 -6.5625 L 6.53125 -6.5625 Z M 6.53125 -0.8125 "/>
</symbol>
<symbol overflow="visible" id="glyph3-8">
<path style="stroke:none;" d=""/>
</symbol>
<symbol overflow="visible" id="glyph3-9">
<path style="stroke:none;" d="M 2.203125 -8.421875 L 2.203125 -6.5625 L 4.421875 -6.5625 L 4.421875 -5.71875 L 2.203125 -5.71875 L 2.203125 -2.15625 C 2.203125 -1.625 2.273438 -1.28125 2.421875 -1.125 C 2.566406 -0.976562 2.863281 -0.90625 3.3125 -0.90625 L 4.421875 -0.90625 L 4.421875 0 L 3.3125 0 C 2.476562 0 1.898438 -0.15625 1.578125 -0.46875 C 1.265625 -0.78125 1.109375 -1.34375 1.109375 -2.15625 L 1.109375 -5.71875 L 0.328125 -5.71875 L 0.328125 -6.5625 L 1.109375 -6.5625 L 1.109375 -8.421875 Z M 2.203125 -8.421875 "/>
</symbol>
<symbol overflow="visible" id="glyph3-10">
<path style="stroke:none;" d="M 6.234375 -5.296875 C 6.503906 -5.785156 6.828125 -6.144531 7.203125 -6.375 C 7.578125 -6.601562 8.019531 -6.71875 8.53125 -6.71875 C 9.21875 -6.71875 9.742188 -6.476562 10.109375 -6 C 10.484375 -5.519531 10.671875 -4.84375 10.671875 -3.96875 L 10.671875 0 L 9.59375 0 L 9.59375 -3.921875 C 9.59375 -4.554688 9.476562 -5.023438 9.25 -5.328125 C 9.03125 -5.628906 8.691406 -5.78125 8.234375 -5.78125 C 7.671875 -5.78125 7.226562 -5.59375 6.90625 -5.21875 C 6.582031 -4.851562 6.421875 -4.347656 6.421875 -3.703125 L 6.421875 0 L 5.34375 0 L 5.34375 -3.921875 C 5.34375 -4.554688 5.226562 -5.023438 5 -5.328125 C 4.78125 -5.628906 4.4375 -5.78125 3.96875 -5.78125 C 3.414062 -5.78125 2.976562 -5.59375 2.65625 -5.21875 C 2.332031 -4.851562 2.171875 -4.347656 2.171875 -3.703125 L 2.171875 0 L 1.09375 0 L 1.09375 -6.5625 L 2.171875 -6.5625 L 2.171875 -5.546875 C 2.421875 -5.941406 2.71875 -6.234375 3.0625 -6.421875 C 3.40625 -6.617188 3.8125 -6.71875 4.28125 -6.71875 C 4.757812 -6.71875 5.164062 -6.597656 5.5 -6.359375 C 5.832031 -6.117188 6.078125 -5.765625 6.234375 -5.296875 Z M 6.234375 -5.296875 "/>
</symbol>
<symbol overflow="visible" id="glyph3-11">
<path style="stroke:none;" d="M 6.75 -3.546875 L 6.75 -3.03125 L 1.78125 -3.03125 C 1.832031 -2.28125 2.054688 -1.710938 2.453125 -1.328125 C 2.859375 -0.941406 3.414062 -0.75 4.125 -0.75 C 4.539062 -0.75 4.941406 -0.796875 5.328125 -0.890625 C 5.722656 -0.992188 6.113281 -1.148438 6.5 -1.359375 L 6.5 -0.328125 C 6.101562 -0.171875 5.703125 -0.0507812 5.296875 0.03125 C 4.890625 0.125 4.476562 0.171875 4.0625 0.171875 C 3.019531 0.171875 2.191406 -0.128906 1.578125 -0.734375 C 0.960938 -1.347656 0.65625 -2.175781 0.65625 -3.21875 C 0.65625 -4.289062 0.945312 -5.140625 1.53125 -5.765625 C 2.113281 -6.398438 2.894531 -6.71875 3.875 -6.71875 C 4.757812 -6.71875 5.457031 -6.429688 5.96875 -5.859375 C 6.488281 -5.296875 6.75 -4.523438 6.75 -3.546875 Z M 5.671875 -3.875 C 5.660156 -4.457031 5.492188 -4.925781 5.171875 -5.28125 C 4.847656 -5.632812 4.421875 -5.8125 3.890625 -5.8125 C 3.285156 -5.8125 2.800781 -5.640625 2.4375 -5.296875 C 2.082031 -4.953125 1.878906 -4.472656 1.828125 -3.859375 Z M 5.671875 -3.875 "/>
</symbol>
<symbol overflow="visible" id="glyph3-12">
<path style="stroke:none;" d="M 4.453125 -9.125 L 4.453125 -8.21875 L 3.421875 -8.21875 C 3.035156 -8.21875 2.765625 -8.140625 2.609375 -7.984375 C 2.460938 -7.828125 2.390625 -7.546875 2.390625 -7.140625 L 2.390625 -6.5625 L 4.171875 -6.5625 L 4.171875 -5.71875 L 2.390625 -5.71875 L 2.390625 0 L 1.3125 0 L 1.3125 -5.71875 L 0.28125 -5.71875 L 0.28125 -6.5625 L 1.3125 -6.5625 L 1.3125 -7.015625 C 1.3125 -7.742188 1.476562 -8.273438 1.8125 -8.609375 C 2.15625 -8.953125 2.695312 -9.125 3.4375 -9.125 Z M 4.453125 -9.125 "/>
</symbol>
<symbol overflow="visible" id="glyph3-13">
<path style="stroke:none;" d="M 1.015625 -2.59375 L 1.015625 -6.5625 L 2.09375 -6.5625 L 2.09375 -2.625 C 2.09375 -2.007812 2.210938 -1.546875 2.453125 -1.234375 C 2.703125 -0.921875 3.066406 -0.765625 3.546875 -0.765625 C 4.128906 -0.765625 4.585938 -0.945312 4.921875 -1.3125 C 5.265625 -1.6875 5.4375 -2.195312 5.4375 -2.84375 L 5.4375 -6.5625 L 6.515625 -6.5625 L 6.515625 0 L 5.4375 0 L 5.4375 -1.015625 C 5.175781 -0.609375 4.875 -0.304688 4.53125 -0.109375 C 4.1875 0.078125 3.785156 0.171875 3.328125 0.171875 C 2.566406 0.171875 1.988281 -0.0625 1.59375 -0.53125 C 1.207031 -1 1.015625 -1.6875 1.015625 -2.59375 Z M 3.734375 -6.71875 Z M 3.734375 -6.71875 "/>
</symbol>
<symbol overflow="visible" id="glyph3-14">
<path style="stroke:none;" d="M 4.109375 -3.296875 C 3.242188 -3.296875 2.640625 -3.195312 2.296875 -3 C 1.960938 -2.800781 1.796875 -2.460938 1.796875 -1.984375 C 1.796875 -1.597656 1.921875 -1.289062 2.171875 -1.0625 C 2.429688 -0.84375 2.773438 -0.734375 3.203125 -0.734375 C 3.804688 -0.734375 4.285156 -0.941406 4.640625 -1.359375 C 5.003906 -1.785156 5.1875 -2.351562 5.1875 -3.0625 L 5.1875 -3.296875 Z M 6.265625 -3.75 L 6.265625 0 L 5.1875 0 L 5.1875 -1 C 4.9375 -0.601562 4.628906 -0.304688 4.265625 -0.109375 C 3.898438 0.078125 3.453125 0.171875 2.921875 0.171875 C 2.242188 0.171875 1.707031 -0.015625 1.3125 -0.390625 C 0.914062 -0.773438 0.71875 -1.28125 0.71875 -1.90625 C 0.71875 -2.644531 0.960938 -3.203125 1.453125 -3.578125 C 1.953125 -3.953125 2.691406 -4.140625 3.671875 -4.140625 L 5.1875 -4.140625 L 5.1875 -4.25 C 5.1875 -4.75 5.019531 -5.132812 4.6875 -5.40625 C 4.363281 -5.675781 3.910156 -5.8125 3.328125 -5.8125 C 2.953125 -5.8125 2.582031 -5.765625 2.21875 -5.671875 C 1.863281 -5.578125 1.523438 -5.441406 1.203125 -5.265625 L 1.203125 -6.265625 C 1.597656 -6.421875 1.976562 -6.535156 2.34375 -6.609375 C 2.71875 -6.679688 3.082031 -6.71875 3.4375 -6.71875 C 4.382812 -6.71875 5.09375 -6.472656 5.5625 -5.984375 C 6.03125 -5.492188 6.265625 -4.75 6.265625 -3.75 Z M 6.265625 -3.75 "/>
</symbol>
<symbol overflow="visible" id="glyph3-15">
<path style="stroke:none;" d="M 0.359375 -6.5625 L 1.5 -6.5625 L 3.546875 -1.0625 L 5.609375 -6.5625 L 6.75 -6.5625 L 4.28125 0 L 2.8125 0 Z M 0.359375 -6.5625 "/>
</symbol>
<symbol overflow="visible" id="glyph3-16">
<path style="stroke:none;" d="M 4.9375 -5.5625 C 4.8125 -5.625 4.675781 -5.671875 4.53125 -5.703125 C 4.394531 -5.742188 4.238281 -5.765625 4.0625 -5.765625 C 3.457031 -5.765625 2.988281 -5.566406 2.65625 -5.171875 C 2.332031 -4.773438 2.171875 -4.203125 2.171875 -3.453125 L 2.171875 0 L 1.09375 0 L 1.09375 -6.5625 L 2.171875 -6.5625 L 2.171875 -5.546875 C 2.398438 -5.941406 2.695312 -6.234375 3.0625 -6.421875 C 3.425781 -6.617188 3.867188 -6.71875 4.390625 -6.71875 C 4.460938 -6.71875 4.539062 -6.710938 4.625 -6.703125 C 4.71875 -6.691406 4.816406 -6.675781 4.921875 -6.65625 Z M 4.9375 -5.5625 "/>
</symbol>
<symbol overflow="visible" id="glyph3-17">
<path style="stroke:none;" d="M 5.84375 -3.28125 C 5.84375 -4.070312 5.675781 -4.691406 5.34375 -5.140625 C 5.019531 -5.585938 4.578125 -5.8125 4.015625 -5.8125 C 3.441406 -5.8125 2.988281 -5.585938 2.65625 -5.140625 C 2.332031 -4.691406 2.171875 -4.070312 2.171875 -3.28125 C 2.171875 -2.488281 2.332031 -1.863281 2.65625 -1.40625 C 2.988281 -0.957031 3.441406 -0.734375 4.015625 -0.734375 C 4.578125 -0.734375 5.019531 -0.957031 5.34375 -1.40625 C 5.675781 -1.863281 5.84375 -2.488281 5.84375 -3.28125 Z M 2.171875 -5.5625 C 2.398438 -5.957031 2.6875 -6.25 3.03125 -6.4375 C 3.375 -6.625 3.785156 -6.71875 4.265625 -6.71875 C 5.066406 -6.71875 5.71875 -6.398438 6.21875 -5.765625 C 6.71875 -5.140625 6.96875 -4.3125 6.96875 -3.28125 C 6.96875 -2.25 6.71875 -1.414062 6.21875 -0.78125 C 5.71875 -0.144531 5.066406 0.171875 4.265625 0.171875 C 3.785156 0.171875 3.375 0.078125 3.03125 -0.109375 C 2.6875 -0.304688 2.398438 -0.597656 2.171875 -0.984375 L 2.171875 0 L 1.09375 0 L 1.09375 -9.125 L 2.171875 -9.125 Z M 2.171875 -5.5625 "/>
</symbol>
<symbol overflow="visible" id="glyph3-18">
<path style="stroke:none;" d="M 2.171875 -0.984375 L 2.171875 2.5 L 1.09375 2.5 L 1.09375 -6.5625 L 2.171875 -6.5625 L 2.171875 -5.5625 C 2.398438 -5.957031 2.6875 -6.25 3.03125 -6.4375 C 3.375 -6.625 3.785156 -6.71875 4.265625 -6.71875 C 5.066406 -6.71875 5.71875 -6.398438 6.21875 -5.765625 C 6.71875 -5.140625 6.96875 -4.3125 6.96875 -3.28125 C 6.96875 -2.25 6.71875 -1.414062 6.21875 -0.78125 C 5.71875 -0.144531 5.066406 0.171875 4.265625 0.171875 C 3.785156 0.171875 3.375 0.078125 3.03125 -0.109375 C 2.6875 -0.304688 2.398438 -0.597656 2.171875 -0.984375 Z M 5.84375 -3.28125 C 5.84375 -4.070312 5.675781 -4.691406 5.34375 -5.140625 C 5.019531 -5.585938 4.578125 -5.8125 4.015625 -5.8125 C 3.441406 -5.8125 2.988281 -5.585938 2.65625 -5.140625 C 2.332031 -4.691406 2.171875 -4.070312 2.171875 -3.28125 C 2.171875 -2.488281 2.332031 -1.863281 2.65625 -1.40625 C 2.988281 -0.957031 3.441406 -0.734375 4.015625 -0.734375 C 4.578125 -0.734375 5.019531 -0.957031 5.34375 -1.40625 C 5.675781 -1.863281 5.84375 -2.488281 5.84375 -3.28125 Z M 5.84375 -3.28125 "/>
</symbol>
<symbol overflow="visible" id="glyph3-19">
<path style="stroke:none;" d="M 5.3125 -6.375 L 5.3125 -5.34375 C 5.007812 -5.5 4.691406 -5.613281 4.359375 -5.6875 C 4.035156 -5.769531 3.695312 -5.8125 3.34375 -5.8125 C 2.8125 -5.8125 2.410156 -5.726562 2.140625 -5.5625 C 1.867188 -5.40625 1.734375 -5.160156 1.734375 -4.828125 C 1.734375 -4.578125 1.828125 -4.378906 2.015625 -4.234375 C 2.210938 -4.097656 2.601562 -3.96875 3.1875 -3.84375 L 3.546875 -3.75 C 4.316406 -3.59375 4.863281 -3.363281 5.1875 -3.0625 C 5.507812 -2.757812 5.671875 -2.34375 5.671875 -1.8125 C 5.671875 -1.195312 5.425781 -0.710938 4.9375 -0.359375 C 4.457031 -0.00390625 3.796875 0.171875 2.953125 0.171875 C 2.597656 0.171875 2.226562 0.132812 1.84375 0.0625 C 1.46875 0 1.070312 -0.0976562 0.65625 -0.234375 L 0.65625 -1.359375 C 1.050781 -1.148438 1.441406 -0.992188 1.828125 -0.890625 C 2.210938 -0.785156 2.597656 -0.734375 2.984375 -0.734375 C 3.484375 -0.734375 3.867188 -0.816406 4.140625 -0.984375 C 4.421875 -1.160156 4.5625 -1.410156 4.5625 -1.734375 C 4.5625 -2.023438 4.460938 -2.25 4.265625 -2.40625 C 4.066406 -2.5625 3.632812 -2.710938 2.96875 -2.859375 L 2.59375 -2.9375 C 1.925781 -3.082031 1.441406 -3.300781 1.140625 -3.59375 C 0.847656 -3.882812 0.703125 -4.28125 0.703125 -4.78125 C 0.703125 -5.40625 0.921875 -5.882812 1.359375 -6.21875 C 1.796875 -6.550781 2.414062 -6.71875 3.21875 -6.71875 C 3.613281 -6.71875 3.988281 -6.6875 4.34375 -6.625 C 4.695312 -6.570312 5.019531 -6.488281 5.3125 -6.375 Z M 5.3125 -6.375 "/>
</symbol>
<symbol overflow="visible" id="glyph3-20">
<path style="stroke:none;" d="M 1.484375 -1 L 3.421875 -1 L 3.421875 -7.671875 L 1.3125 -7.25 L 1.3125 -8.328125 L 3.40625 -8.75 L 4.59375 -8.75 L 4.59375 -1 L 6.53125 -1 L 6.53125 0 L 1.484375 0 Z M 1.484375 -1 "/>
</symbol>
</g>
<clipPath id="clip1">
  <path d="M 225 129 L 226 129 L 226 961 L 225 961 Z M 225 129 "/>
</clipPath>
<clipPath id="clip2">
  <path d="M 1045 129 L 1047 129 L 1047 961 L 1045 961 Z M 1045 129 "/>
</clipPath>
<clipPath id="clip3">
  <path d="M 471 129 L 473 129 L 473 961 L 471 961 Z M 471 129 "/>
</clipPath>
<clipPath id="clip4">
  <path d="M 616 129 L 618 129 L 618 961 L 616 961 Z M 616 129 "/>
</clipPath>
<clipPath id="clip5">
  <path d="M 718 129 L 720 129 L 720 961 L 718 961 Z M 718 129 "/>
</clipPath>
<clipPath id="clip6">
  <path d="M 798 129 L 800 129 L 800 961 L 798 961 Z M 798 129 "/>
</clipPath>
<clipPath id="clip7">
  <path d="M 863 129 L 865 129 L 865 961 L 863 961 Z M 863 129 "/>
</clipPath>
<clipPath id="clip8">
  <path d="M 918 129 L 920 129 L 920 961 L 918 961 Z M 918 129 "/>
</clipPath>
<clipPath id="clip9">
  <path d="M 966 129 L 967 129 L 967 961 L 966 961 Z M 966 129 "/>
</clipPath>
<clipPath id="clip10">
  <path d="M 1008 129 L 1009 129 L 1009 961 L 1008 961 Z M 1008 129 "/>
</clipPath>
<clipPath id="clip11">
  <path d="M 1292 129 L 1294 129 L 1294 961 L 1292 961 Z M 1292 129 "/>
</clipPath>
<clipPath id="clip12">
  <path d="M 1437 129 L 1439 129 L 1439 961 L 1437 961 Z M 1437 129 "/>
</clipPath>
<clipPath id="clip13">
  <path d="M 1540 129 L 1541 129 L 1541 961 L 1540 961 Z M 1540 129 "/>
</clipPath>
<clipPath id="clip14">
  <path d="M 1619 129 L 1620 129 L 1620 961 L 1619 961 Z M 1619 129 "/>
</clipPath>
<clipPath id="clip15">
  <path d="M 225 960 L 1620 960 L 1620 961 L 225 961 Z M 225 960 "/>
</clipPath>
<clipPath id="clip16">
  <path d="M 225 767 L 1620 767 L 1620 769 L 225 769 Z M 225 767 "/>
</clipPath>
<clipPath id="clip17">
  <path d="M 225 574 L 1620 574 L 1620 575 L 225 575 Z M 225 574 "/>
</clipPath>
<clipPath id="clip18">
  <path d="M 225 380 L 1620 380 L 1620 382 L 225 382 Z M 225 380 "/>
</clipPath>
<clipPath id="clip19">
  <path d="M 225 187 L 1620 187 L 1620 189 L 225 189 Z M 225 187 "/>
</clipPath>
<clipPath id="clip20">
  <path d="M 225 902 L 1620 902 L 1620 904 L 225 904 Z M 225 902 "/>
</clipPath>
<clipPath id="clip21">
  <path d="M 225 868 L 1620 868 L 1620 870 L 225 870 Z M 225 868 "/>
</clipPath>
<clipPath id="clip22">
  <path d="M 225 844 L 1620 844 L 1620 846 L 225 846 Z M 225 844 "/>
</clipPath>
<clipPath id="clip23">
  <path d="M 225 825 L 1620 825 L 1620 827 L 225 827 Z M 225 825 "/>
</clipPath>
<clipPath id="clip24">
  <path d="M 225 810 L 1620 810 L 1620 812 L 225 812 Z M 225 810 "/>
</clipPath>
<clipPath id="clip25">
  <path d="M 225 797 L 1620 797 L 1620 799 L 225 799 Z M 225 797 "/>
</clipPath>
<clipPath id="clip26">
  <path d="M 225 786 L 1620 786 L 1620 787 L 225 787 Z M 225 786 "/>
</clipPath>
<clipPath id="clip27">
  <path d="M 225 776 L 1620 776 L 1620 778 L 225 778 Z M 225 776 "/>
</clipPath>
<clipPath id="clip28">
  <path d="M 225 709 L 1620 709 L 1620 711 L 225 711 Z M 225 709 "/>
</clipPath>
<clipPath id="clip29">
  <path d="M 225 675 L 1620 675 L 1620 676 L 225 676 Z M 225 675 "/>
</clipPath>
<clipPath id="clip30">
  <path d="M 225 651 L 1620 651 L 1620 652 L 225 652 Z M 225 651 "/>
</clipPath>
<clipPath id="clip31">
  <path d="M 225 632 L 1620 632 L 1620 634 L 225 634 Z M 225 632 "/>
</clipPath>
<clipPath id="clip32">
  <path d="M 225 616 L 1620 616 L 1620 618 L 225 618 Z M 225 616 "/>
</clipPath>
<clipPath id="clip33">
  <path d="M 225 604 L 1620 604 L 1620 605 L 225 605 Z M 225 604 "/>
</clipPath>
<clipPath id="clip34">
  <path d="M 225 592 L 1620 592 L 1620 594 L 225 594 Z M 225 592 "/>
</clipPath>
<clipPath id="clip35">
  <path d="M 225 582 L 1620 582 L 1620 584 L 225 584 Z M 225 582 "/>
</clipPath>
<clipPath id="clip36">
  <path d="M 225 515 L 1620 515 L 1620 517 L 225 517 Z M 225 515 "/>
</clipPath>
<clipPath id="clip37">
  <path d="M 225 481 L 1620 481 L 1620 483 L 225 483 Z M 225 481 "/>
</clipPath>
<clipPath id="clip38">
  <path d="M 225 457 L 1620 457 L 1620 459 L 225 459 Z M 225 457 "/>
</clipPath>
<clipPath id="clip39">
  <path d="M 225 438 L 1620 438 L 1620 440 L 225 440 Z M 225 438 "/>
</clipPath>
<clipPath id="clip40">
  <path d="M 225 423 L 1620 423 L 1620 425 L 225 425 Z M 225 423 "/>
</clipPath>
<clipPath id="clip41">
  <path d="M 225 410 L 1620 410 L 1620 412 L 225 412 Z M 225 410 "/>
</clipPath>
<clipPath id="clip42">
  <path d="M 225 399 L 1620 399 L 1620 401 L 225 401 Z M 225 399 "/>
</clipPath>
<clipPath id="clip43">
  <path d="M 225 389 L 1620 389 L 1620 391 L 225 391 Z M 225 389 "/>
</clipPath>
<clipPath id="clip44">
  <path d="M 225 322 L 1620 322 L 1620 324 L 225 324 Z M 225 322 "/>
</clipPath>
<clipPath id="clip45">
  <path d="M 225 288 L 1620 288 L 1620 290 L 225 290 Z M 225 288 "/>
</clipPath>
<clipPath id="clip46">
  <path d="M 225 264 L 1620 264 L 1620 266 L 225 266 Z M 225 264 "/>
</clipPath>
<clipPath id="clip47">
  <path d="M 225 245 L 1620 245 L 1620 247 L 225 247 Z M 225 245 "/>
</clipPath>
<clipPath id="clip48">
  <path d="M 225 230 L 1620 230 L 1620 232 L 225 232 Z M 225 230 "/>
</clipPath>
<clipPath id="clip49">
  <path d="M 225 217 L 1620 217 L 1620 219 L 225 219 Z M 225 217 "/>
</clipPath>
<clipPath id="clip50">
  <path d="M 225 206 L 1620 206 L 1620 207 L 225 207 Z M 225 206 "/>
</clipPath>
<clipPath id="clip51">
  <path d="M 225 196 L 1620 196 L 1620 198 L 225 198 Z M 225 196 "/>
</clipPath>
<clipPath id="clip52">
  <path d="M 225 129 L 1620 129 L 1620 130 L 225 130 Z M 225 129 "/>
</clipPath>
</defs>
<g id="surface49">
<rect x="0" y="0" width="1800" height="1080" style="fill:rgb(100%,100%,100%);fill-opacity:1;stroke:none;"/>
<path style=" stroke:none;fill-rule:nonzero;fill:rgb(100%,100%,100%);fill-opacity:1;" d="M 225 961.199219 L 1620 961.199219 L 1620 129.601562 L 225 129.601562 Z M 225 961.199219 "/>
<g clip-path="url(#clip1)" clip-rule="nonzero">
<path style="fill:none;stroke-width:0.8;stroke-linecap:butt;stroke-linejoin:round;stroke:rgb(65%,65%,65%);stroke-opacity:1;stroke-dasharray:2.96,1.28;stroke-miterlimit:10;" d="M 225 961.199219 L 225 129.601562 "/>
</g>
<path style="fill:none;stroke-width:0.8;stroke-linecap:butt;stroke-linejoin:round;stroke:rgb(0%,0%,0%);stroke-opacity:1;stroke-miterlimit:10;" d="M 225 961.199219 L 225 964.699219 "/>
<g style="fill:rgb(0%,0%,0%);fill-opacity:1;">
  <use xlink:href="#glyph0-1" x="213" y="976.136719"/>
</g>
<g style="fill:rgb(0%,0%,0%);fill-opacity:1;">
  <use xlink:href="#glyph0-2" x="219.363281" y="976.136719"/>
</g>
<g style="fill:rgb(0%,0%,0%);fill-opacity:1;">
  <use xlink:href="#glyph1-1" x="225.820312" y="972.308594"/>
</g>
<g style="fill:rgb(0%,0%,0%);fill-opacity:1;">
  <use xlink:href="#glyph1-2" x="231.683594" y="972.308594"/>
</g>
<g clip-path="url(#clip2)" clip-rule="nonzero">
<path style="fill:none;stroke-width:0.8;stroke-linecap:butt;stroke-linejoin:round;stroke:rgb(65%,65%,65%);stroke-opacity:1;stroke-dasharray:2.96,1.28;stroke-miterlimit:10;" d="M 1046.085938 961.199219 L 1046.085938 129.601562 "/>
</g>
<path style="fill:none;stroke-width:0.8;stroke-linecap:butt;stroke-linejoin:round;stroke:rgb(0%,0%,0%);stroke-opacity:1;stroke-miterlimit:10;" d="M 1046.085938 961.199219 L 1046.085938 964.699219 "/>
<g style="fill:rgb(0%,0%,0%);fill-opacity:1;">
  <use xlink:href="#glyph0-1" x="1037.085938" y="976.222656"/>
</g>
<g style="fill:rgb(0%,0%,0%);fill-opacity:1;">
  <use xlink:href="#glyph0-2" x="1043.449219" y="976.222656"/>
</g>
<g style="fill:rgb(0%,0%,0%);fill-opacity:1;">
  <use xlink:href="#glyph1-3" x="1049.90625" y="972.394531"/>
</g>
<g clip-path="url(#clip3)" clip-rule="nonzero">
<path style="fill:none;stroke-width:0.8;stroke-linecap:butt;stroke-linejoin:round;stroke:rgb(65%,65%,65%);stroke-opacity:1;stroke-dasharray:2.96,1.28;stroke-miterlimit:10;" d="M 472.171875 961.199219 L 472.171875 129.601562 "/>
</g>
<path style="fill:none;stroke-width:0.6;stroke-linecap:butt;stroke-linejoin:round;stroke:rgb(0%,0%,0%);stroke-opacity:1;stroke-miterlimit:10;" d="M 472.171875 961.199219 L 472.171875 963.199219 "/>
<g clip-path="url(#clip4)" clip-rule="nonzero">
<path style="fill:none;stroke-width:0.8;stroke-linecap:butt;stroke-linejoin:round;stroke:rgb(65%,65%,65%);stroke-opacity:1;stroke-dasharray:2.96,1.28;stroke-miterlimit:10;" d="M 616.757812 961.199219 L 616.757812 129.601562 "/>
</g>
<path style="fill:none;stroke-width:0.6;stroke-linecap:butt;stroke-linejoin:round;stroke:rgb(0%,0%,0%);stroke-opacity:1;stroke-miterlimit:10;" d="M 616.757812 961.199219 L 616.757812 963.199219 "/>
<g clip-path="url(#clip5)" clip-rule="nonzero">
<path style="fill:none;stroke-width:0.8;stroke-linecap:butt;stroke-linejoin:round;stroke:rgb(65%,65%,65%);stroke-opacity:1;stroke-dasharray:2.96,1.28;stroke-miterlimit:10;" d="M 719.34375 961.199219 L 719.34375 129.601562 "/>
</g>
<path style="fill:none;stroke-width:0.6;stroke-linecap:butt;stroke-linejoin:round;stroke:rgb(0%,0%,0%);stroke-opacity:1;stroke-miterlimit:10;" d="M 719.34375 961.199219 L 719.34375 963.199219 "/>
<g clip-path="url(#clip6)" clip-rule="nonzero">
<path style="fill:none;stroke-width:0.8;stroke-linecap:butt;stroke-linejoin:round;stroke:rgb(65%,65%,65%);stroke-opacity:1;stroke-dasharray:2.96,1.28;stroke-miterlimit:10;" d="M 798.914062 961.199219 L 798.914062 129.601562 "/>
</g>
<path style="fill:none;stroke-width:0.6;stroke-linecap:butt;stroke-linejoin:round;stroke:rgb(0%,0%,0%);stroke-opacity:1;stroke-miterlimit:10;" d="M 798.914062 961.199219 L 798.914062 963.199219 "/>
<g clip-path="url(#clip7)" clip-rule="nonzero">
<path style="fill:none;stroke-width:0.8;stroke-linecap:butt;stroke-linejoin:round;stroke:rgb(65%,65%,65%);stroke-opacity:1;stroke-dasharray:2.96,1.28;stroke-miterlimit:10;" d="M 863.929688 961.199219 L 863.929688 129.601562 "/>
</g>
<path style="fill:none;stroke-width:0.6;stroke-linecap:butt;stroke-linejoin:round;stroke:rgb(0%,0%,0%);stroke-opacity:1;stroke-miterlimit:10;" d="M 863.929688 961.199219 L 863.929688 963.199219 "/>
<g clip-path="url(#clip8)" clip-rule="nonzero">
<path style="fill:none;stroke-width:0.8;stroke-linecap:butt;stroke-linejoin:round;stroke:rgb(65%,65%,65%);stroke-opacity:1;stroke-dasharray:2.96,1.28;stroke-miterlimit:10;" d="M 918.898438 961.199219 L 918.898438 129.601562 "/>
</g>
<path style="fill:none;stroke-width:0.6;stroke-linecap:butt;stroke-linejoin:round;stroke:rgb(0%,0%,0%);stroke-opacity:1;stroke-miterlimit:10;" d="M 918.898438 961.199219 L 918.898438 963.199219 "/>
<g clip-path="url(#clip9)" clip-rule="nonzero">
<path style="fill:none;stroke-width:0.8;stroke-linecap:butt;stroke-linejoin:round;stroke:rgb(65%,65%,65%);stroke-opacity:1;stroke-dasharray:2.96,1.28;stroke-miterlimit:10;" d="M 966.515625 961.199219 L 966.515625 129.601562 "/>
</g>
<path style="fill:none;stroke-width:0.6;stroke-linecap:butt;stroke-linejoin:round;stroke:rgb(0%,0%,0%);stroke-opacity:1;stroke-miterlimit:10;" d="M 966.515625 961.199219 L 966.515625 963.199219 "/>
<g clip-path="url(#clip10)" clip-rule="nonzero">
<path style="fill:none;stroke-width:0.8;stroke-linecap:butt;stroke-linejoin:round;stroke:rgb(65%,65%,65%);stroke-opacity:1;stroke-dasharray:2.96,1.28;stroke-miterlimit:10;" d="M 1008.515625 961.199219 L 1008.515625 129.601562 "/>
</g>
<path style="fill:none;stroke-width:0.6;stroke-linecap:butt;stroke-linejoin:round;stroke:rgb(0%,0%,0%);stroke-opacity:1;stroke-miterlimit:10;" d="M 1008.515625 961.199219 L 1008.515625 963.199219 "/>
<g clip-path="url(#clip11)" clip-rule="nonzero">
<path style="fill:none;stroke-width:0.8;stroke-linecap:butt;stroke-linejoin:round;stroke:rgb(65%,65%,65%);stroke-opacity:1;stroke-dasharray:2.96,1.28;stroke-miterlimit:10;" d="M 1293.257812 961.199219 L 1293.257812 129.601562 "/>
</g>
<path style="fill:none;stroke-width:0.6;stroke-linecap:butt;stroke-linejoin:round;stroke:rgb(0%,0%,0%);stroke-opacity:1;stroke-miterlimit:10;" d="M 1293.257812 961.199219 L 1293.257812 963.199219 "/>
<g clip-path="url(#clip12)" clip-rule="nonzero">
<path style="fill:none;stroke-width:0.8;stroke-linecap:butt;stroke-linejoin:round;stroke:rgb(65%,65%,65%);stroke-opacity:1;stroke-dasharray:2.96,1.28;stroke-miterlimit:10;" d="M 1437.84375 961.199219 L 1437.84375 129.601562 "/>
</g>
<path style="fill:none;stroke-width:0.6;stroke-linecap:butt;stroke-linejoin:round;stroke:rgb(0%,0%,0%);stroke-opacity:1;stroke-miterlimit:10;" d="M 1437.84375 961.199219 L 1437.84375 963.199219 "/>
<g clip-path="url(#clip13)" clip-rule="nonzero">
<path style="fill:none;stroke-width:0.8;stroke-linecap:butt;stroke-linejoin:round;stroke:rgb(65%,65%,65%);stroke-opacity:1;stroke-dasharray:2.96,1.28;stroke-miterlimit:10;" d="M 1540.429688 961.199219 L 1540.429688 129.601562 "/>
</g>
<path style="fill:none;stroke-width:0.6;stroke-linecap:butt;stroke-linejoin:round;stroke:rgb(0%,0%,0%);stroke-opacity:1;stroke-miterlimit:10;" d="M 1540.429688 961.199219 L 1540.429688 963.199219 "/>
<g clip-path="url(#clip14)" clip-rule="nonzero">
<path style="fill:none;stroke-width:0.8;stroke-linecap:butt;stroke-linejoin:round;stroke:rgb(65%,65%,65%);stroke-opacity:1;stroke-dasharray:2.96,1.28;stroke-miterlimit:10;" d="M 1620 961.199219 L 1620 129.601562 "/>
</g>
<path style="fill:none;stroke-width:0.6;stroke-linecap:butt;stroke-linejoin:round;stroke:rgb(0%,0%,0%);stroke-opacity:1;stroke-miterlimit:10;" d="M 1620 961.199219 L 1620 963.199219 "/>
<g style="fill:rgb(0%,0%,0%);fill-opacity:1;">
  <use xlink:href="#glyph0-3" x="890.5" y="991.199219"/>
  <use xlink:href="#glyph0-4" x="897.360352" y="991.199219"/>
  <use xlink:href="#glyph0-5" x="900.138672" y="991.199219"/>
  <use xlink:href="#glyph0-6" x="904.05957" y="991.199219"/>
  <use xlink:href="#glyph0-7" x="909.269531" y="991.199219"/>
  <use xlink:href="#glyph0-8" x="912.448242" y="991.199219"/>
  <use xlink:href="#glyph0-9" x="918.795898" y="991.199219"/>
  <use xlink:href="#glyph0-10" x="924.948242" y="991.199219"/>
  <use xlink:href="#glyph0-7" x="929.05957" y="991.199219"/>
  <use xlink:href="#glyph0-8" x="932.238281" y="991.199219"/>
  <use xlink:href="#glyph0-4" x="938.585938" y="991.199219"/>
  <use xlink:href="#glyph0-11" x="941.364258" y="991.199219"/>
  <use xlink:href="#glyph0-9" x="947.282227" y="991.199219"/>
  <use xlink:href="#glyph0-12" x="953.43457" y="991.199219"/>
</g>
<g clip-path="url(#clip15)" clip-rule="nonzero">
<path style="fill:none;stroke-width:0.8;stroke-linecap:butt;stroke-linejoin:round;stroke:rgb(65%,65%,65%);stroke-opacity:1;stroke-dasharray:2.96,1.28;stroke-miterlimit:10;" d="M 225 961.199219 L 1620 961.199219 "/>
</g>
<path style="fill:none;stroke-width:0.8;stroke-linecap:butt;stroke-linejoin:round;stroke:rgb(0%,0%,0%);stroke-opacity:1;stroke-miterlimit:10;" d="M 225 961.199219 L 221.5 961.199219 "/>
<g style="fill:rgb(0%,0%,0%);fill-opacity:1;">
  <use xlink:href="#glyph0-1" x="194" y="964.722656"/>
</g>
<g style="fill:rgb(0%,0%,0%);fill-opacity:1;">
  <use xlink:href="#glyph0-2" x="200.363281" y="964.722656"/>
</g>
<g style="fill:rgb(0%,0%,0%);fill-opacity:1;">
  <use xlink:href="#glyph1-1" x="206.820312" y="960.894531"/>
</g>
<g style="fill:rgb(0%,0%,0%);fill-opacity:1;">
  <use xlink:href="#glyph1-4" x="212.6875" y="960.894531"/>
</g>
<g clip-path="url(#clip16)" clip-rule="nonzero">
<path style="fill:none;stroke-width:0.8;stroke-linecap:butt;stroke-linejoin:round;stroke:rgb(65%,65%,65%);stroke-opacity:1;stroke-dasharray:2.96,1.28;stroke-miterlimit:10;" d="M 225 767.851562 L 1620 767.851562 "/>
</g>
<path style="fill:none;stroke-width:0.8;stroke-linecap:butt;stroke-linejoin:round;stroke:rgb(0%,0%,0%);stroke-opacity:1;stroke-miterlimit:10;" d="M 225 767.851562 L 221.5 767.851562 "/>
<g style="fill:rgb(0%,0%,0%);fill-opacity:1;">
  <use xlink:href="#glyph0-1" x="194" y="771.785156"/>
</g>
<g style="fill:rgb(0%,0%,0%);fill-opacity:1;">
  <use xlink:href="#glyph0-2" x="200.363281" y="771.785156"/>
</g>
<g style="fill:rgb(0%,0%,0%);fill-opacity:1;">
  <use xlink:href="#glyph1-1" x="206.820312" y="767.957031"/>
</g>
<g style="fill:rgb(0%,0%,0%);fill-opacity:1;">
  <use xlink:href="#glyph1-2" x="212.6875" y="767.957031"/>
</g>
<g clip-path="url(#clip17)" clip-rule="nonzero">
<path style="fill:none;stroke-width:0.8;stroke-linecap:butt;stroke-linejoin:round;stroke:rgb(65%,65%,65%);stroke-opacity:1;stroke-dasharray:2.96,1.28;stroke-miterlimit:10;" d="M 225 574.5 L 1620 574.5 "/>
</g>
<path style="fill:none;stroke-width:0.8;stroke-linecap:butt;stroke-linejoin:round;stroke:rgb(0%,0%,0%);stroke-opacity:1;stroke-miterlimit:10;" d="M 225 574.5 L 221.5 574.5 "/>
<g style="fill:rgb(0%,0%,0%);fill-opacity:1;">
  <use xlink:href="#glyph0-1" x="200" y="578.023438"/>
</g>
<g style="fill:rgb(0%,0%,0%);fill-opacity:1;">
  <use xlink:href="#glyph0-2" x="206.363281" y="578.023438"/>
</g>
<g style="fill:rgb(0%,0%,0%);fill-opacity:1;">
  <use xlink:href="#glyph1-3" x="212.820312" y="574.195312"/>
</g>
<g clip-path="url(#clip18)" clip-rule="nonzero">
<path style="fill:none;stroke-width:0.8;stroke-linecap:butt;stroke-linejoin:round;stroke:rgb(65%,65%,65%);stroke-opacity:1;stroke-dasharray:2.96,1.28;stroke-miterlimit:10;" d="M 225 381.152344 L 1620 381.152344 "/>
</g>
<path style="fill:none;stroke-width:0.8;stroke-linecap:butt;stroke-linejoin:round;stroke:rgb(0%,0%,0%);stroke-opacity:1;stroke-miterlimit:10;" d="M 225 381.152344 L 221.5 381.152344 "/>
<g style="fill:rgb(0%,0%,0%);fill-opacity:1;">
  <use xlink:href="#glyph0-1" x="200" y="385.089844"/>
</g>
<g style="fill:rgb(0%,0%,0%);fill-opacity:1;">
  <use xlink:href="#glyph0-2" x="206.363281" y="385.089844"/>
</g>
<g style="fill:rgb(0%,0%,0%);fill-opacity:1;">
  <use xlink:href="#glyph1-2" x="212.820312" y="381.261719"/>
</g>
<g clip-path="url(#clip19)" clip-rule="nonzero">
<path style="fill:none;stroke-width:0.8;stroke-linecap:butt;stroke-linejoin:round;stroke:rgb(65%,65%,65%);stroke-opacity:1;stroke-dasharray:2.96,1.28;stroke-miterlimit:10;" d="M 225 187.804688 L 1620 187.804688 "/>
</g>
<path style="fill:none;stroke-width:0.8;stroke-linecap:butt;stroke-linejoin:round;stroke:rgb(0%,0%,0%);stroke-opacity:1;stroke-miterlimit:10;" d="M 225 187.804688 L 221.5 187.804688 "/>
<g style="fill:rgb(0%,0%,0%);fill-opacity:1;">
  <use xlink:href="#glyph0-1" x="200" y="191.328125"/>
</g>
<g style="fill:rgb(0%,0%,0%);fill-opacity:1;">
  <use xlink:href="#glyph0-2" x="206.363281" y="191.328125"/>
</g>
<g style="fill:rgb(0%,0%,0%);fill-opacity:1;">
  <use xlink:href="#glyph1-4" x="212.820312" y="187.5"/>
</g>
<g clip-path="url(#clip20)" clip-rule="nonzero">
<path style="fill:none;stroke-width:0.8;stroke-linecap:butt;stroke-linejoin:round;stroke:rgb(65%,65%,65%);stroke-opacity:1;stroke-dasharray:2.96,1.28;stroke-miterlimit:10;" d="M 225 902.996094 L 1620 902.996094 "/>
</g>
<path style="fill:none;stroke-width:0.6;stroke-linecap:butt;stroke-linejoin:round;stroke:rgb(0%,0%,0%);stroke-opacity:1;stroke-miterlimit:10;" d="M 225 902.996094 L 223 902.996094 "/>
<g clip-path="url(#clip21)" clip-rule="nonzero">
<path style="fill:none;stroke-width:0.8;stroke-linecap:butt;stroke-linejoin:round;stroke:rgb(65%,65%,65%);stroke-opacity:1;stroke-dasharray:2.96,1.28;stroke-miterlimit:10;" d="M 225 868.949219 L 1620 868.949219 "/>
</g>
<path style="fill:none;stroke-width:0.6;stroke-linecap:butt;stroke-linejoin:round;stroke:rgb(0%,0%,0%);stroke-opacity:1;stroke-miterlimit:10;" d="M 225 868.949219 L 223 868.949219 "/>
<g clip-path="url(#clip22)" clip-rule="nonzero">
<path style="fill:none;stroke-width:0.8;stroke-linecap:butt;stroke-linejoin:round;stroke:rgb(65%,65%,65%);stroke-opacity:1;stroke-dasharray:2.96,1.28;stroke-miterlimit:10;" d="M 225 844.792969 L 1620 844.792969 "/>
</g>
<path style="fill:none;stroke-width:0.6;stroke-linecap:butt;stroke-linejoin:round;stroke:rgb(0%,0%,0%);stroke-opacity:1;stroke-miterlimit:10;" d="M 225 844.792969 L 223 844.792969 "/>
<g clip-path="url(#clip23)" clip-rule="nonzero">
<path style="fill:none;stroke-width:0.8;stroke-linecap:butt;stroke-linejoin:round;stroke:rgb(65%,65%,65%);stroke-opacity:1;stroke-dasharray:2.96,1.28;stroke-miterlimit:10;" d="M 225 826.054688 L 1620 826.054688 "/>
</g>
<path style="fill:none;stroke-width:0.6;stroke-linecap:butt;stroke-linejoin:round;stroke:rgb(0%,0%,0%);stroke-opacity:1;stroke-miterlimit:10;" d="M 225 826.054688 L 223 826.054688 "/>
<g clip-path="url(#clip24)" clip-rule="nonzero">
<path style="fill:none;stroke-width:0.8;stroke-linecap:butt;stroke-linejoin:round;stroke:rgb(65%,65%,65%);stroke-opacity:1;stroke-dasharray:2.96,1.28;stroke-miterlimit:10;" d="M 225 810.746094 L 1620 810.746094 "/>
</g>
<path style="fill:none;stroke-width:0.6;stroke-linecap:butt;stroke-linejoin:round;stroke:rgb(0%,0%,0%);stroke-opacity:1;stroke-miterlimit:10;" d="M 225 810.746094 L 223 810.746094 "/>
<g clip-path="url(#clip25)" clip-rule="nonzero">
<path style="fill:none;stroke-width:0.8;stroke-linecap:butt;stroke-linejoin:round;stroke:rgb(65%,65%,65%);stroke-opacity:1;stroke-dasharray:2.96,1.28;stroke-miterlimit:10;" d="M 225 797.800781 L 1620 797.800781 "/>
</g>
<path style="fill:none;stroke-width:0.6;stroke-linecap:butt;stroke-linejoin:round;stroke:rgb(0%,0%,0%);stroke-opacity:1;stroke-miterlimit:10;" d="M 225 797.800781 L 223 797.800781 "/>
<g clip-path="url(#clip26)" clip-rule="nonzero">
<path style="fill:none;stroke-width:0.8;stroke-linecap:butt;stroke-linejoin:round;stroke:rgb(65%,65%,65%);stroke-opacity:1;stroke-dasharray:2.96,1.28;stroke-miterlimit:10;" d="M 225 786.589844 L 1620 786.589844 "/>
</g>
<path style="fill:none;stroke-width:0.6;stroke-linecap:butt;stroke-linejoin:round;stroke:rgb(0%,0%,0%);stroke-opacity:1;stroke-miterlimit:10;" d="M 225 786.589844 L 223 786.589844 "/>
<g clip-path="url(#clip27)" clip-rule="nonzero">
<path style="fill:none;stroke-width:0.8;stroke-linecap:butt;stroke-linejoin:round;stroke:rgb(65%,65%,65%);stroke-opacity:1;stroke-dasharray:2.96,1.28;stroke-miterlimit:10;" d="M 225 776.699219 L 1620 776.699219 "/>
</g>
<path style="fill:none;stroke-width:0.6;stroke-linecap:butt;stroke-linejoin:round;stroke:rgb(0%,0%,0%);stroke-opacity:1;stroke-miterlimit:10;" d="M 225 776.699219 L 223 776.699219 "/>
<g clip-path="url(#clip28)" clip-rule="nonzero">
<path style="fill:none;stroke-width:0.8;stroke-linecap:butt;stroke-linejoin:round;stroke:rgb(65%,65%,65%);stroke-opacity:1;stroke-dasharray:2.96,1.28;stroke-miterlimit:10;" d="M 225 709.648438 L 1620 709.648438 "/>
</g>
<path style="fill:none;stroke-width:0.6;stroke-linecap:butt;stroke-linejoin:round;stroke:rgb(0%,0%,0%);stroke-opacity:1;stroke-miterlimit:10;" d="M 225 709.648438 L 223 709.648438 "/>
<g clip-path="url(#clip29)" clip-rule="nonzero">
<path style="fill:none;stroke-width:0.8;stroke-linecap:butt;stroke-linejoin:round;stroke:rgb(65%,65%,65%);stroke-opacity:1;stroke-dasharray:2.96,1.28;stroke-miterlimit:10;" d="M 225 675.601562 L 1620 675.601562 "/>
</g>
<path style="fill:none;stroke-width:0.6;stroke-linecap:butt;stroke-linejoin:round;stroke:rgb(0%,0%,0%);stroke-opacity:1;stroke-miterlimit:10;" d="M 225 675.601562 L 223 675.601562 "/>
<g clip-path="url(#clip30)" clip-rule="nonzero">
<path style="fill:none;stroke-width:0.8;stroke-linecap:butt;stroke-linejoin:round;stroke:rgb(65%,65%,65%);stroke-opacity:1;stroke-dasharray:2.96,1.28;stroke-miterlimit:10;" d="M 225 651.441406 L 1620 651.441406 "/>
</g>
<path style="fill:none;stroke-width:0.6;stroke-linecap:butt;stroke-linejoin:round;stroke:rgb(0%,0%,0%);stroke-opacity:1;stroke-miterlimit:10;" d="M 225 651.441406 L 223 651.441406 "/>
<g clip-path="url(#clip31)" clip-rule="nonzero">
<path style="fill:none;stroke-width:0.8;stroke-linecap:butt;stroke-linejoin:round;stroke:rgb(65%,65%,65%);stroke-opacity:1;stroke-dasharray:2.96,1.28;stroke-miterlimit:10;" d="M 225 632.707031 L 1620 632.707031 "/>
</g>
<path style="fill:none;stroke-width:0.6;stroke-linecap:butt;stroke-linejoin:round;stroke:rgb(0%,0%,0%);stroke-opacity:1;stroke-miterlimit:10;" d="M 225 632.707031 L 223 632.707031 "/>
<g clip-path="url(#clip32)" clip-rule="nonzero">
<path style="fill:none;stroke-width:0.8;stroke-linecap:butt;stroke-linejoin:round;stroke:rgb(65%,65%,65%);stroke-opacity:1;stroke-dasharray:2.96,1.28;stroke-miterlimit:10;" d="M 225 617.394531 L 1620 617.394531 "/>
</g>
<path style="fill:none;stroke-width:0.6;stroke-linecap:butt;stroke-linejoin:round;stroke:rgb(0%,0%,0%);stroke-opacity:1;stroke-miterlimit:10;" d="M 225 617.394531 L 223 617.394531 "/>
<g clip-path="url(#clip33)" clip-rule="nonzero">
<path style="fill:none;stroke-width:0.8;stroke-linecap:butt;stroke-linejoin:round;stroke:rgb(65%,65%,65%);stroke-opacity:1;stroke-dasharray:2.96,1.28;stroke-miterlimit:10;" d="M 225 604.453125 L 1620 604.453125 "/>
</g>
<path style="fill:none;stroke-width:0.6;stroke-linecap:butt;stroke-linejoin:round;stroke:rgb(0%,0%,0%);stroke-opacity:1;stroke-miterlimit:10;" d="M 225 604.453125 L 223 604.453125 "/>
<g clip-path="url(#clip34)" clip-rule="nonzero">
<path style="fill:none;stroke-width:0.8;stroke-linecap:butt;stroke-linejoin:round;stroke:rgb(65%,65%,65%);stroke-opacity:1;stroke-dasharray:2.96,1.28;stroke-miterlimit:10;" d="M 225 593.238281 L 1620 593.238281 "/>
</g>
<path style="fill:none;stroke-width:0.6;stroke-linecap:butt;stroke-linejoin:round;stroke:rgb(0%,0%,0%);stroke-opacity:1;stroke-miterlimit:10;" d="M 225 593.238281 L 223 593.238281 "/>
<g clip-path="url(#clip35)" clip-rule="nonzero">
<path style="fill:none;stroke-width:0.8;stroke-linecap:butt;stroke-linejoin:round;stroke:rgb(65%,65%,65%);stroke-opacity:1;stroke-dasharray:2.96,1.28;stroke-miterlimit:10;" d="M 225 583.347656 L 1620 583.347656 "/>
</g>
<path style="fill:none;stroke-width:0.6;stroke-linecap:butt;stroke-linejoin:round;stroke:rgb(0%,0%,0%);stroke-opacity:1;stroke-miterlimit:10;" d="M 225 583.347656 L 223 583.347656 "/>
<g clip-path="url(#clip36)" clip-rule="nonzero">
<path style="fill:none;stroke-width:0.8;stroke-linecap:butt;stroke-linejoin:round;stroke:rgb(65%,65%,65%);stroke-opacity:1;stroke-dasharray:2.96,1.28;stroke-miterlimit:10;" d="M 225 516.296875 L 1620 516.296875 "/>
</g>
<path style="fill:none;stroke-width:0.6;stroke-linecap:butt;stroke-linejoin:round;stroke:rgb(0%,0%,0%);stroke-opacity:1;stroke-miterlimit:10;" d="M 225 516.296875 L 223 516.296875 "/>
<g clip-path="url(#clip37)" clip-rule="nonzero">
<path style="fill:none;stroke-width:0.8;stroke-linecap:butt;stroke-linejoin:round;stroke:rgb(65%,65%,65%);stroke-opacity:1;stroke-dasharray:2.96,1.28;stroke-miterlimit:10;" d="M 225 482.25 L 1620 482.25 "/>
</g>
<path style="fill:none;stroke-width:0.6;stroke-linecap:butt;stroke-linejoin:round;stroke:rgb(0%,0%,0%);stroke-opacity:1;stroke-miterlimit:10;" d="M 225 482.25 L 223 482.25 "/>
<g clip-path="url(#clip38)" clip-rule="nonzero">
<path style="fill:none;stroke-width:0.8;stroke-linecap:butt;stroke-linejoin:round;stroke:rgb(65%,65%,65%);stroke-opacity:1;stroke-dasharray:2.96,1.28;stroke-miterlimit:10;" d="M 225 458.09375 L 1620 458.09375 "/>
</g>
<path style="fill:none;stroke-width:0.6;stroke-linecap:butt;stroke-linejoin:round;stroke:rgb(0%,0%,0%);stroke-opacity:1;stroke-miterlimit:10;" d="M 225 458.09375 L 223 458.09375 "/>
<g clip-path="url(#clip39)" clip-rule="nonzero">
<path style="fill:none;stroke-width:0.8;stroke-linecap:butt;stroke-linejoin:round;stroke:rgb(65%,65%,65%);stroke-opacity:1;stroke-dasharray:2.96,1.28;stroke-miterlimit:10;" d="M 225 439.355469 L 1620 439.355469 "/>
</g>
<path style="fill:none;stroke-width:0.6;stroke-linecap:butt;stroke-linejoin:round;stroke:rgb(0%,0%,0%);stroke-opacity:1;stroke-miterlimit:10;" d="M 225 439.355469 L 223 439.355469 "/>
<g clip-path="url(#clip40)" clip-rule="nonzero">
<path style="fill:none;stroke-width:0.8;stroke-linecap:butt;stroke-linejoin:round;stroke:rgb(65%,65%,65%);stroke-opacity:1;stroke-dasharray:2.96,1.28;stroke-miterlimit:10;" d="M 225 424.046875 L 1620 424.046875 "/>
</g>
<path style="fill:none;stroke-width:0.6;stroke-linecap:butt;stroke-linejoin:round;stroke:rgb(0%,0%,0%);stroke-opacity:1;stroke-miterlimit:10;" d="M 225 424.046875 L 223 424.046875 "/>
<g clip-path="url(#clip41)" clip-rule="nonzero">
<path style="fill:none;stroke-width:0.8;stroke-linecap:butt;stroke-linejoin:round;stroke:rgb(65%,65%,65%);stroke-opacity:1;stroke-dasharray:2.96,1.28;stroke-miterlimit:10;" d="M 225 411.101562 L 1620 411.101562 "/>
</g>
<path style="fill:none;stroke-width:0.6;stroke-linecap:butt;stroke-linejoin:round;stroke:rgb(0%,0%,0%);stroke-opacity:1;stroke-miterlimit:10;" d="M 225 411.101562 L 223 411.101562 "/>
<g clip-path="url(#clip42)" clip-rule="nonzero">
<path style="fill:none;stroke-width:0.8;stroke-linecap:butt;stroke-linejoin:round;stroke:rgb(65%,65%,65%);stroke-opacity:1;stroke-dasharray:2.96,1.28;stroke-miterlimit:10;" d="M 225 399.890625 L 1620 399.890625 "/>
</g>
<path style="fill:none;stroke-width:0.6;stroke-linecap:butt;stroke-linejoin:round;stroke:rgb(0%,0%,0%);stroke-opacity:1;stroke-miterlimit:10;" d="M 225 399.890625 L 223 399.890625 "/>
<g clip-path="url(#clip43)" clip-rule="nonzero">
<path style="fill:none;stroke-width:0.8;stroke-linecap:butt;stroke-linejoin:round;stroke:rgb(65%,65%,65%);stroke-opacity:1;stroke-dasharray:2.96,1.28;stroke-miterlimit:10;" d="M 225 390 L 1620 390 "/>
</g>
<path style="fill:none;stroke-width:0.6;stroke-linecap:butt;stroke-linejoin:round;stroke:rgb(0%,0%,0%);stroke-opacity:1;stroke-miterlimit:10;" d="M 225 390 L 223 390 "/>
<g clip-path="url(#clip44)" clip-rule="nonzero">
<path style="fill:none;stroke-width:0.8;stroke-linecap:butt;stroke-linejoin:round;stroke:rgb(65%,65%,65%);stroke-opacity:1;stroke-dasharray:2.96,1.28;stroke-miterlimit:10;" d="M 225 322.949219 L 1620 322.949219 "/>
</g>
<path style="fill:none;stroke-width:0.6;stroke-linecap:butt;stroke-linejoin:round;stroke:rgb(0%,0%,0%);stroke-opacity:1;stroke-miterlimit:10;" d="M 225 322.949219 L 223 322.949219 "/>
<g clip-path="url(#clip45)" clip-rule="nonzero">
<path style="fill:none;stroke-width:0.8;stroke-linecap:butt;stroke-linejoin:round;stroke:rgb(65%,65%,65%);stroke-opacity:1;stroke-dasharray:2.96,1.28;stroke-miterlimit:10;" d="M 225 288.902344 L 1620 288.902344 "/>
</g>
<path style="fill:none;stroke-width:0.6;stroke-linecap:butt;stroke-linejoin:round;stroke:rgb(0%,0%,0%);stroke-opacity:1;stroke-miterlimit:10;" d="M 225 288.902344 L 223 288.902344 "/>
<g clip-path="url(#clip46)" clip-rule="nonzero">
<path style="fill:none;stroke-width:0.8;stroke-linecap:butt;stroke-linejoin:round;stroke:rgb(65%,65%,65%);stroke-opacity:1;stroke-dasharray:2.96,1.28;stroke-miterlimit:10;" d="M 225 264.746094 L 1620 264.746094 "/>
</g>
<path style="fill:none;stroke-width:0.6;stroke-linecap:butt;stroke-linejoin:round;stroke:rgb(0%,0%,0%);stroke-opacity:1;stroke-miterlimit:10;" d="M 225 264.746094 L 223 264.746094 "/>
<g clip-path="url(#clip47)" clip-rule="nonzero">
<path style="fill:none;stroke-width:0.8;stroke-linecap:butt;stroke-linejoin:round;stroke:rgb(65%,65%,65%);stroke-opacity:1;stroke-dasharray:2.96,1.28;stroke-miterlimit:10;" d="M 225 246.007812 L 1620 246.007812 "/>
</g>
<path style="fill:none;stroke-width:0.6;stroke-linecap:butt;stroke-linejoin:round;stroke:rgb(0%,0%,0%);stroke-opacity:1;stroke-miterlimit:10;" d="M 225 246.007812 L 223 246.007812 "/>
<g clip-path="url(#clip48)" clip-rule="nonzero">
<path style="fill:none;stroke-width:0.8;stroke-linecap:butt;stroke-linejoin:round;stroke:rgb(65%,65%,65%);stroke-opacity:1;stroke-dasharray:2.96,1.28;stroke-miterlimit:10;" d="M 225 230.699219 L 1620 230.699219 "/>
</g>
<path style="fill:none;stroke-width:0.6;stroke-linecap:butt;stroke-linejoin:round;stroke:rgb(0%,0%,0%);stroke-opacity:1;stroke-miterlimit:10;" d="M 225 230.699219 L 223 230.699219 "/>
<g clip-path="url(#clip49)" clip-rule="nonzero">
<path style="fill:none;stroke-width:0.8;stroke-linecap:butt;stroke-linejoin:round;stroke:rgb(65%,65%,65%);stroke-opacity:1;stroke-dasharray:2.96,1.28;stroke-miterlimit:10;" d="M 225 217.753906 L 1620 217.753906 "/>
</g>
<path style="fill:none;stroke-width:0.6;stroke-linecap:butt;stroke-linejoin:round;stroke:rgb(0%,0%,0%);stroke-opacity:1;stroke-miterlimit:10;" d="M 225 217.753906 L 223 217.753906 "/>
<g clip-path="url(#clip50)" clip-rule="nonzero">
<path style="fill:none;stroke-width:0.8;stroke-linecap:butt;stroke-linejoin:round;stroke:rgb(65%,65%,65%);stroke-opacity:1;stroke-dasharray:2.96,1.28;stroke-miterlimit:10;" d="M 225 206.542969 L 1620 206.542969 "/>
</g>
<path style="fill:none;stroke-width:0.6;stroke-linecap:butt;stroke-linejoin:round;stroke:rgb(0%,0%,0%);stroke-opacity:1;stroke-miterlimit:10;" d="M 225 206.542969 L 223 206.542969 "/>
<g clip-path="url(#clip51)" clip-rule="nonzero">
<path style="fill:none;stroke-width:0.8;stroke-linecap:butt;stroke-linejoin:round;stroke:rgb(65%,65%,65%);stroke-opacity:1;stroke-dasharray:2.96,1.28;stroke-miterlimit:10;" d="M 225 196.652344 L 1620 196.652344 "/>
</g>
<path style="fill:none;stroke-width:0.6;stroke-linecap:butt;stroke-linejoin:round;stroke:rgb(0%,0%,0%);stroke-opacity:1;stroke-miterlimit:10;" d="M 225 196.652344 L 223 196.652344 "/>
<g clip-path="url(#clip52)" clip-rule="nonzero">
<path style="fill:none;stroke-width:0.8;stroke-linecap:butt;stroke-linejoin:round;stroke:rgb(65%,65%,65%);stroke-opacity:1;stroke-dasharray:2.96,1.28;stroke-miterlimit:10;" d="M 225 129.601562 L 1620 129.601562 "/>
</g>
<path style="fill:none;stroke-width:0.6;stroke-linecap:butt;stroke-linejoin:round;stroke:rgb(0%,0%,0%);stroke-opacity:1;stroke-miterlimit:10;" d="M 225 129.601562 L 223 129.601562 "/>
<g style="fill:rgb(0%,0%,0%);fill-opacity:1;">
  <use xlink:href="#glyph2-1" x="188" y="566.398438"/>
  <use xlink:href="#glyph2-2" x="188" y="560.290039"/>
  <use xlink:href="#glyph2-3" x="188" y="557.511719"/>
  <use xlink:href="#glyph2-4" x="188" y="547.770508"/>
  <use xlink:href="#glyph2-5" x="188" y="541.618164"/>
  <use xlink:href="#glyph2-6" x="188" y="538.439453"/>
  <use xlink:href="#glyph2-7" x="188" y="534.538086"/>
  <use xlink:href="#glyph2-8" x="188" y="529.328125"/>
</g>
<path style="fill:none;stroke-width:1.5;stroke-linecap:square;stroke-linejoin:round;stroke:rgb(12.156863%,46.666667%,70.588235%);stroke-opacity:1;stroke-miterlimit:10;" d="M 440.390625 626.746094 L 501.976562 628.460938 L 554.386719 627.671875 L 598.449219 626.9375 L 629.355469 625.4375 L 654.46875 623.195312 L 674.246094 624.117188 L 686.597656 628.375 L 695.824219 626.464844 L 701.886719 626.855469 L 705.972656 625.992188 L 716.675781 626.542969 L 724.550781 625.957031 L 732.613281 623.707031 L 741.121094 622.835938 L 750.285156 624.238281 L 759.191406 623.886719 L 768.105469 624.832031 L 779.890625 625.105469 L 789.554688 623.296875 L 799.828125 623.132812 L 810.792969 622.980469 L 836.878906 630.242188 L 848.589844 630.699219 L 860.425781 629.601562 L 872.789062 627.882812 L 885.8125 627.480469 L 899.351562 627.925781 L 913.605469 624.675781 L 928.695312 625.867188 L 942.664062 634.609375 L 959.917969 632.082031 L 978.523438 633.992188 L 998.289062 631.621094 L 1019.527344 633.210938 L 1042.167969 636.308594 L 1059.761719 639.121094 L 1086.519531 640.261719 L 1115.828125 640.070312 L 1147.808594 643.757812 L 1180.542969 642.363281 L 1221.105469 643.1875 L 1268.210938 645.5 L 1320.1875 645.40625 L 1391.3125 644.628906 L 1490.066406 645.199219 "/>
<path style="fill:none;stroke-width:1.5;stroke-linecap:square;stroke-linejoin:round;stroke:rgb(100%,49.803922%,5.490196%);stroke-opacity:1;stroke-miterlimit:10;" d="M 449.761719 634.351562 L 493.28125 632.152344 L 547.023438 631.609375 L 590.519531 629.289062 L 623.140625 631.089844 L 648.269531 628.777344 L 667.363281 629.304688 L 679.117188 629.617188 L 688.027344 627.40625 L 693.523438 625.421875 L 697.5625 623.359375 L 707.613281 625.480469 L 715.175781 626.070312 L 722.71875 624.910156 L 730.472656 627.566406 L 739.4375 626.101562 L 748.015625 626.742188 L 756.816406 625.445312 L 768.347656 627.589844 L 777.984375 625.417969 L 787.988281 622.324219 L 798.976562 622.683594 L 825.585938 633.441406 L 837.265625 632.265625 L 849.421875 634.261719 L 861.789062 632.890625 L 874.660156 631.835938 L 888.246094 630.949219 L 902.523438 631.863281 L 917.742188 631.363281 L 931.808594 636.910156 L 949.824219 638.214844 L 968.96875 637.664062 L 989.765625 640.867188 L 1011.976562 637.632812 L 1035.984375 640.203125 L 1054.730469 643.738281 L 1082.917969 642.660156 L 1113.5 642.476562 L 1146.691406 646.230469 L 1180.828125 644.164062 L 1222.671875 644.582031 L 1271.34375 651.199219 L 1326.097656 647.789062 L 1400.285156 645.417969 L 1504.144531 644.535156 "/>
<path style="fill:none;stroke-width:0.8;stroke-linecap:square;stroke-linejoin:miter;stroke:rgb(0%,0%,0%);stroke-opacity:1;stroke-miterlimit:10;" d="M 225 961.199219 L 225 129.601562 "/>
<path style="fill:none;stroke-width:0.8;stroke-linecap:square;stroke-linejoin:miter;stroke:rgb(0%,0%,0%);stroke-opacity:1;stroke-miterlimit:10;" d="M 1620 961.199219 L 1620 129.601562 "/>
<path style="fill:none;stroke-width:0.8;stroke-linecap:square;stroke-linejoin:miter;stroke:rgb(0%,0%,0%);stroke-opacity:1;stroke-miterlimit:10;" d="M 225 961.199219 L 1620 961.199219 "/>
<path style="fill:none;stroke-width:0.8;stroke-linecap:square;stroke-linejoin:miter;stroke:rgb(0%,0%,0%);stroke-opacity:1;stroke-miterlimit:10;" d="M 225 129.601562 L 1620 129.601562 "/>
<g style="fill:rgb(0%,0%,0%);fill-opacity:1;">
  <use xlink:href="#glyph3-1" x="797.5" y="123.601562"/>
  <use xlink:href="#glyph3-2" x="805.082031" y="123.601562"/>
  <use xlink:href="#glyph3-3" x="812.6875" y="123.601562"/>
  <use xlink:href="#glyph3-4" x="819.285156" y="123.601562"/>
  <use xlink:href="#glyph3-5" x="826.626953" y="123.601562"/>
  <use xlink:href="#glyph3-6" x="834.244141" y="123.601562"/>
  <use xlink:href="#glyph3-2" x="837.578125" y="123.601562"/>
  <use xlink:href="#glyph3-7" x="845.183594" y="123.601562"/>
  <use xlink:href="#glyph3-8" x="852.800781" y="123.601562"/>
  <use xlink:href="#glyph3-9" x="856.615234" y="123.601562"/>
  <use xlink:href="#glyph3-6" x="861.320312" y="123.601562"/>
  <use xlink:href="#glyph3-10" x="864.654297" y="123.601562"/>
  <use xlink:href="#glyph3-11" x="876.34375" y="123.601562"/>
  <use xlink:href="#glyph3-8" x="883.726562" y="123.601562"/>
  <use xlink:href="#glyph3-6" x="887.541016" y="123.601562"/>
  <use xlink:href="#glyph3-2" x="890.875" y="123.601562"/>
  <use xlink:href="#glyph3-8" x="898.480469" y="123.601562"/>
  <use xlink:href="#glyph3-12" x="902.294922" y="123.601562"/>
  <use xlink:href="#glyph3-13" x="906.519531" y="123.601562"/>
  <use xlink:href="#glyph3-2" x="914.125" y="123.601562"/>
  <use xlink:href="#glyph3-3" x="921.730469" y="123.601562"/>
  <use xlink:href="#glyph3-9" x="928.328125" y="123.601562"/>
  <use xlink:href="#glyph3-6" x="933.033203" y="123.601562"/>
  <use xlink:href="#glyph3-4" x="936.367188" y="123.601562"/>
  <use xlink:href="#glyph3-2" x="943.708984" y="123.601562"/>
  <use xlink:href="#glyph3-8" x="951.314453" y="123.601562"/>
  <use xlink:href="#glyph3-4" x="955.128906" y="123.601562"/>
  <use xlink:href="#glyph3-12" x="962.470703" y="123.601562"/>
  <use xlink:href="#glyph3-8" x="966.695312" y="123.601562"/>
  <use xlink:href="#glyph3-14" x="970.509766" y="123.601562"/>
  <use xlink:href="#glyph3-15" x="977.863281" y="123.601562"/>
  <use xlink:href="#glyph3-11" x="984.964844" y="123.601562"/>
  <use xlink:href="#glyph3-16" x="992.347656" y="123.601562"/>
  <use xlink:href="#glyph3-14" x="997.28125" y="123.601562"/>
  <use xlink:href="#glyph3-7" x="1004.634766" y="123.601562"/>
  <use xlink:href="#glyph3-11" x="1012.251953" y="123.601562"/>
  <use xlink:href="#glyph3-8" x="1019.634766" y="123.601562"/>
  <use xlink:href="#glyph3-17" x="1023.449219" y="123.601562"/>
  <use xlink:href="#glyph3-18" x="1031.066406" y="123.601562"/>
  <use xlink:href="#glyph3-18" x="1038.683594" y="123.601562"/>
</g>
<path style="fill-rule:nonzero;fill:rgb(100%,100%,100%);fill-opacity:0.8;stroke-width:1;stroke-linecap:butt;stroke-linejoin:miter;stroke:rgb(80%,80%,80%);stroke-opacity:0.8;stroke-miterlimit:10;" d="M 1515 167.601562 L 1613 167.601562 C 1614.332031 167.601562 1615 166.933594 1615 165.601562 L 1615 136.601562 C 1615 135.265625 1614.332031 134.601562 1613 134.601562 L 1515 134.601562 C 1513.667969 134.601562 1513 135.265625 1513 136.601562 L 1513 165.601562 C 1513 166.933594 1513.667969 167.601562 1515 167.601562 Z M 1515 167.601562 "/>
<path style="fill:none;stroke-width:1.5;stroke-linecap:square;stroke-linejoin:round;stroke:rgb(12.156863%,46.666667%,70.588235%);stroke-opacity:1;stroke-miterlimit:10;" d="M 1517 143.101562 L 1537 143.101562 "/>
<g style="fill:rgb(0%,0%,0%);fill-opacity:1;">
  <use xlink:href="#glyph0-13" x="1545" y="146.601562"/>
  <use xlink:href="#glyph0-11" x="1547.77832" y="146.601562"/>
  <use xlink:href="#glyph0-12" x="1553.696289" y="146.601562"/>
  <use xlink:href="#glyph0-14" x="1556.474609" y="146.601562"/>
  <use xlink:href="#glyph0-2" x="1561.474609" y="146.601562"/>
  <use xlink:href="#glyph0-15" x="1567.836914" y="146.601562"/>
  <use xlink:href="#glyph0-16" x="1571.015625" y="146.601562"/>
  <use xlink:href="#glyph0-15" x="1577.37793" y="146.601562"/>
  <use xlink:href="#glyph0-17" x="1580.556641" y="146.601562"/>
</g>
<path style="fill:none;stroke-width:1.5;stroke-linecap:square;stroke-linejoin:round;stroke:rgb(100%,49.803922%,5.490196%);stroke-opacity:1;stroke-miterlimit:10;" d="M 1517 158.101562 L 1537 158.101562 "/>
<g style="fill:rgb(0%,0%,0%);fill-opacity:1;">
  <use xlink:href="#glyph0-13" x="1545" y="161.601562"/>
  <use xlink:href="#glyph0-11" x="1547.77832" y="161.601562"/>
  <use xlink:href="#glyph0-12" x="1553.696289" y="161.601562"/>
  <use xlink:href="#glyph0-14" x="1556.474609" y="161.601562"/>
  <use xlink:href="#glyph0-18" x="1561.474609" y="161.601562"/>
  <use xlink:href="#glyph0-2" x="1567.836914" y="161.601562"/>
  <use xlink:href="#glyph0-18" x="1574.199219" y="161.601562"/>
  <use xlink:href="#glyph0-1" x="1580.561523" y="161.601562"/>
  <use xlink:href="#glyph0-2" x="1586.923828" y="161.601562"/>
  <use xlink:href="#glyph0-17" x="1593.286133" y="161.601562"/>
  <use xlink:href="#glyph0-1" x="1599.648438" y="161.601562"/>
  <use xlink:href="#glyph0-19" x="1606.010742" y="161.601562"/>
</g>
<g style="fill:rgb(0%,0%,0%);fill-opacity:1;">
  <use xlink:href="#glyph3-19" x="876.5" y="31.601562"/>
  <use xlink:href="#glyph3-13" x="882.751953" y="31.601562"/>
  <use xlink:href="#glyph3-17" x="890.357422" y="31.601562"/>
  <use xlink:href="#glyph3-19" x="897.974609" y="31.601562"/>
  <use xlink:href="#glyph3-11" x="904.226562" y="31.601562"/>
  <use xlink:href="#glyph3-9" x="911.609375" y="31.601562"/>
  <use xlink:href="#glyph3-20" x="916.314453" y="31.601562"/>
</g>
</g>
</svg>
